<?xml version="1.0" encoding="utf-8"?>
<osm version="0.6">
  <node id="-1" lat="41.0286357371" lon="21.3331854343">
    <tag k="description" v="The newest and most modern hotel in..."/>
    <tag k="label" v="Ambasador"/>
    <tag k="website" v="http://travel2macedonia.com.mk/travel-to-macedonia/accommodation/bitola/hotel/ambasador"/>
    <tag k="category" v="accommodation"/>
  </node>
  <node id="-2" lat="41.0787769416" lon="20.8023655415">
    <tag k="description" v="Hotel Belvedere gives You an opportunity to..."/>
    <tag k="label" v="Belvedere"/>
    <tag k="website" v="http://travel2macedonia.com.mk/travel-to-macedonia/accommodation/ohrid/hotel/belvedere"/>
    <tag k="category" v="accommodation"/>
  </node>
  <node id="-3" lat="41.9963504646" lon="21.4294928312">
    <tag k="description" v="A real choice for businessmen and travelers..."/>
    <tag k="label" v="Duvet"/>
    <tag k="website" v="http://travel2macedonia.com.mk/travel-to-macedonia/accommodation/skopje/hotel/duvet"/>
    <tag k="category" v="accommodation"/>
  </node>
  <node id="-4" lat="41.1057673724" lon="20.8082234859">
    <tag k="description" v="Unforgettable scenery...comfort, warmth and quality in a..."/>
    <tag k="label" v="Lebed"/>
    <tag k="website" v="http://travel2macedonia.com.mk/travel-to-macedonia/accommodation/ohrid/hotel/lebed"/>
    <tag k="category" v="accommodation"/>
  </node>
  <node id="-5" lat="42.0310219107" lon="21.4044624567">
    <tag k="description" v="Small type hotel situated on the exit..."/>
    <tag k="label" v="Luxor"/>
    <tag k="website" v="http://travel2macedonia.com.mk/travel-to-macedonia/accommodation/skopje/hotel/luxor"/>
    <tag k="category" v="accommodation"/>
  </node>
  <node id="-6" lat="41.0361502497" lon="21.2254571915">
    <tag k="description" v="Hotel Molika represents the pearl of Pelister...."/>
    <tag k="label" v="Molika"/>
    <tag k="website" v="http://travel2macedonia.com.mk/travel-to-macedonia/accommodation/bitola/hotel/molika"/>
    <tag k="category" v="accommodation"/>
  </node>
  <node id="-7" lat="41.9940261364" lon="21.0274672508">
    <tag k="description" v="Petrol Company Complex is located beside the..."/>
    <tag k="label" v="Petrol Company"/>
    <tag k="website" v="http://travel2macedonia.com.mk/travel-to-macedonia/accommodation/tetovo/hotel/petrol-company"/>
    <tag k="category" v="accommodation"/>
  </node>
  <node id="-8" lat="41.0430448798692" lon="21.2549614906311">
    <tag k="description" v="Quetly situated in the Pelister National park..."/>
    <tag k="label" v="Sumski Feneri"/>
    <tag k="website" v="http://travel2macedonia.com.mk/travel-to-macedonia/accommodation/bitola/hotel/sumski-feneri"/>
    <tag k="category" v="accommodation"/>
  </node>
  <node id="-9" lat="41.6585652828" lon="20.7340121269">
    <tag k="description" v="The hotel has always been run by..."/>
    <tag k="label" v="Srna"/>
    <tag k="website" v="http://travel2macedonia.com.mk/travel-to-macedonia/accommodation/mavrovo/hotel/srna"/>
    <tag k="category" v="accommodation"/>
  </node>
  <node id="-10" lat="41.140075613523" lon="22.5039267539978">
    <tag k="description" v="Apollonia Hotel invites you and your friends..."/>
    <tag k="label" v="Apollonia"/>
    <tag k="website" v="http://travel2macedonia.com.mk/travel-to-macedonia/accommodation/gevgelija/hotel/apollonia"/>
    <tag k="category" v="accommodation"/>
  </node>
  <node id="-11" lat="41.9859162372084" lon="21.4259201288223">
    <tag k="description" v="Isolated from the central city area, yet..."/>
    <tag k="label" v="Leonardo"/>
    <tag k="website" v="http://travel2macedonia.com.mk/travel-to-macedonia/accommodation/skopje/hotel/leonardo"/>
    <tag k="category" v="accommodation"/>
  </node>
  <node id="-12" lat="42.0030120054819" lon="21.4183241128922">
    <tag k="description" v="This handsome apartment-hotel has a range of..."/>
    <tag k="label" v="Tim's"/>
    <tag k="website" v="http://travel2macedonia.com.mk/travel-to-macedonia/accommodation/skopje/hotel/tims"/>
    <tag k="category" v="accommodation"/>
  </node>
  <node id="-13" lat="42.0087202037466" lon="20.9739035367966">
    <tag k="description" v="Tivoli is a new, modern and comfortable..."/>
    <tag k="label" v="Tivoli"/>
    <tag k="website" v="http://travel2macedonia.com.mk/travel-to-macedonia/accommodation/tetovo/hotel/tivoli"/>
    <tag k="category" v="accommodation"/>
  </node>
  <node id="-14" lat="41.9905414783641" lon="21.4139145612717">
    <tag k="description" v="The Aristocrat Palace Hotel is a luxurious..."/>
    <tag k="label" v="Aristokrat Palace"/>
    <tag k="website" v="http://travel2macedonia.com.mk/travel-to-macedonia/accommodation/skopje/hotel/aristocrat-palace"/>
    <tag k="category" v="accommodation"/>
  </node>
  <node id="-15" lat="42.0147945672577" lon="20.8800101280212">
    <tag k="description" v="Hotel Slavija is situated near the ski..."/>
    <tag k="label" v="Slavija"/>
    <tag k="website" v="http://travel2macedonia.com.mk/travel-to-macedonia/accommodation/popova-sapka/hotel/slavija"/>
    <tag k="category" v="accommodation"/>
  </node>
  <node id="-16" lat="41.7010025329906" lon="22.8586542606354">
    <tag k="description" v="An authentic building, accommodation characterized with the..."/>
    <tag k="label" v="Manastir"/>
    <tag k="website" v="http://travel2macedonia.com.mk/travel-to-macedonia/accommodation/berovo/hotel/manastir"/>
    <tag k="category" v="accommodation"/>
  </node>
  <node id="-17" lat="42.0134753158347" lon="20.8804929256439">
    <tag k="description" v="Hotel Popova Sapka is situated near the..."/>
    <tag k="label" v="Popova Sapka"/>
    <tag k="website" v="http://travel2macedonia.com.mk/travel-to-macedonia/accommodation/popova-sapka/hotel/popova-sapka"/>
    <tag k="category" v="accommodation"/>
  </node>
  <node id="-18" lat="41.1729042000053" lon="20.6803035736084">
    <tag k="description" v="The greatest of all in Struga, hotel..."/>
    <tag k="label" v="Drim"/>
    <tag k="website" v="http://travel2macedonia.com.mk/travel-to-macedonia/accommodation/struga/hotel/drim"/>
    <tag k="category" v="accommodation"/>
  </node>
  <node id="-19" lat="41.1779756546648" lon="20.6783509254456">
    <tag k="description" v="Hotel Beograd has 42 double-bed rooms and..."/>
    <tag k="label" v="Beograd"/>
    <tag k="website" v="http://travel2macedonia.com.mk/travel-to-macedonia/accommodation/struga/hotel/beograd"/>
    <tag k="category" v="accommodation"/>
  </node>
  <node id="-20" lat="40.913751754941" lon="20.7404494285583">
    <tag k="description" v="Hotel St. Naum is situated in the..."/>
    <tag k="label" v="Sveti Naum"/>
    <tag k="website" v="http://travel2macedonia.com.mk/travel-to-macedonia/accommodation/ohrid/hotel/sveti-naum"/>
    <tag k="category" v="accommodation"/>
  </node>
  <node id="-21" lat="41.1756337896817" lon="20.6746816635132">
    <tag k="description" v="Welcome to Hotel Montenegro Struga. Family-run hotel..."/>
    <tag k="label" v="Montenegro"/>
    <tag k="website" v="http://travel2macedonia.com.mk/travel-to-macedonia/accommodation/struga/hotel/montenegro"/>
    <tag k="category" v="accommodation"/>
  </node>
  <node id="-22" lat="41.9156270863753" lon="22.4096202850342">
    <tag k="description" v="Hotel Gradce is a modern hotel with..."/>
    <tag k="label" v="Gradce"/>
    <tag k="website" v="http://travel2macedonia.com.mk/travel-to-macedonia/accommodation/kocani/hotel/gradce"/>
    <tag k="category" v="accommodation"/>
  </node>
  <node id="-23" lat="41.9766248667376" lon="21.4088129997253">
    <tag k="description" v="Hotel Vodno is a modern and comfortable..."/>
    <tag k="label" v="Vodno"/>
    <tag k="website" v="http://travel2macedonia.com.mk/travel-to-macedonia/accommodation/skopje/hotel/vodno"/>
    <tag k="category" v="accommodation"/>
  </node>
  <node id="-24" lat="41.9945763280702" lon="21.4364612102509">
    <tag k="description" v="Holiday Inn Skopje is a 5* hotel..."/>
    <tag k="label" v="Holiday Inn Skopje"/>
    <tag k="website" v="http://travel2macedonia.com.mk/travel-to-macedonia/accommodation/skopje/hotel/holiday-inn-skopje"/>
    <tag k="category" v="accommodation"/>
  </node>
  <node id="-25" lat="41.9935835873903" lon="21.430179476738">
    <tag k="description" v="Best Western Hotel Turist is a 4..."/>
    <tag k="label" v="Best Western Turist"/>
    <tag k="website" v="http://travel2macedonia.com.mk/travel-to-macedonia/accommodation/skopje/hotel/best-western-turist"/>
    <tag k="category" v="accommodation"/>
  </node>
  <node id="-26" lat="42.0018798717835" lon="21.4075255393982">
    <tag k="description" v="Hotel Karpos is a remarkable hotel of..."/>
    <tag k="label" v="Karpos"/>
    <tag k="website" v="http://travel2macedonia.com.mk/travel-to-macedonia/accommodation/skopje/hotel/karpos"/>
    <tag k="category" v="accommodation"/>
  </node>
  <node id="-27" lat="41.9966973124986" lon="21.5521395206451">
    <tag k="description" v="Best Western Hotel Bellevue is a hotel..."/>
    <tag k="label" v="Best Western Bellevue"/>
    <tag k="website" v="http://travel2macedonia.com.mk/travel-to-macedonia/accommodation/skopje/hotel/best-western-bellevue"/>
    <tag k="category" v="accommodation"/>
  </node>
  <node id="-28" lat="41.996964423947" lon="21.429283618927">
    <tag k="description" v="Hotel Jadran is a comfortable hotel, and..."/>
    <tag k="label" v="Jadran"/>
    <tag k="website" v="http://travel2macedonia.com.mk/travel-to-macedonia/accommodation/skopje/hotel/jadran"/>
    <tag k="category" v="accommodation"/>
  </node>
  <node id="-29" lat="41.9919050629056" lon="21.4294284582138">
    <tag k="description" v="Hotel Bristol is a comfortable hotel with..."/>
    <tag k="label" v="Bristol"/>
    <tag k="website" v="http://travel2macedonia.com.mk/travel-to-macedonia/accommodation/skopje/hotel/bristol"/>
    <tag k="category" v="accommodation"/>
  </node>
  <node id="-30" lat="41.6498275576203" lon="20.7392263412476">
    <tag k="description" v="Hotel Makpetrol Mavrovo is located on the..."/>
    <tag k="label" v="Makpetrol"/>
    <tag k="website" v="http://travel2macedonia.com.mk/travel-to-macedonia/accommodation/mavrovo/hotel/makpetrol"/>
    <tag k="category" v="accommodation"/>
  </node>
  <node id="-31" lat="41.1420147663702" lon="20.6471729278564">
    <tag k="description" v="The Struga Makpetrol Hotel is located in..."/>
    <tag k="label" v="Makpetrol"/>
    <tag k="website" v="http://travel2macedonia.com.mk/travel-to-macedonia/accommodation/struga/hotel/makpetrol-struga"/>
    <tag k="category" v="accommodation"/>
  </node>
  <node id="-32" lat="41.1468058440112" lon="20.7597291469574">
    <tag k="description" v="Hotel KOCAREV is an ideal place for..."/>
    <tag k="label" v="Kocarev"/>
    <tag k="website" v="http://travel2macedonia.com.mk/travel-to-macedonia/accommodation/ohrid/hotel/kocarev"/>
    <tag k="category" v="accommodation"/>
  </node>
  <node id="-33" lat="41.1464907585962" lon="22.5263929367065">
    <tag k="description" v="Cheslea Motel is placed near Greece border...."/>
    <tag k="label" v="Chelsea"/>
    <tag k="website" v="http://travel2macedonia.com.mk/travel-to-macedonia/accommodation/gevgelija/motel/chelsea"/>
    <tag k="category" v="accommodation"/>
  </node>
  <node id="-34" lat="41.1474117732462" lon="22.5222516059875">
    <tag k="description" v="Between Gevgelija and the River Vardar is..."/>
    <tag k="label" v="Vardar"/>
    <tag k="website" v="http://travel2macedonia.com.mk/travel-to-macedonia/accommodation/gevgelija/motel/vardar"/>
    <tag k="category" v="accommodation"/>
  </node>
  <node id="-35" lat="41.112553664" lon="20.7962232828">
    <tag k="description" v="An ideal place for vacation in the..."/>
    <tag k="label" v="Grebnos Stone House"/>
    <tag k="website" v="http://travel2macedonia.com.mk/travel-to-macedonia/accommodation/ohrid/apartments/grebnos-stone-house"/>
    <tag k="category" v="accommodation"/>
  </node>
  <node id="-36" lat="41.1123879559" lon="20.8019793034">
    <tag k="description" v="The appartments are located in the very..."/>
    <tag k="label" v="MATJAN"/>
    <tag k="website" v="http://travel2macedonia.com.mk/travel-to-macedonia/accommodation/ohrid/apartments/matjan"/>
    <tag k="category" v="accommodation"/>
  </node>
  <node id="-37" lat="41.1138429397175" lon="20.7942062616348">
    <tag k="description" v="A typical restored Ohrid style house, located..."/>
    <tag k="label" v="Sveta Varvara"/>
    <tag k="website" v="http://travel2macedonia.com.mk/travel-to-macedonia/accommodation/ohrid/apartments/sveta-varvara"/>
    <tag k="category" v="accommodation"/>
  </node>
  <node id="-38" lat="41.0127986333" lon="20.8086848259">
    <tag k="description" v="Located near the lake, on the main..."/>
    <tag k="label" v="Basoski"/>
    <tag k="website" v="http://travel2macedonia.com.mk/travel-to-macedonia/accommodation/ohrid/apartments/basoski"/>
    <tag k="category" v="accommodation"/>
  </node>
  <node id="-39" lat="41.1090737057177" lon="20.8076763153076">
    <tag k="description" v="Volkan Apartments are located,near the city center..."/>
    <tag k="label" v="Volkan"/>
    <tag k="website" v="http://travel2macedonia.com.mk/travel-to-macedonia/accommodation/ohrid/apartments/volkan"/>
    <tag k="category" v="accommodation"/>
  </node>
  <node id="-40" lat="41.1132973245651" lon="20.8017647266388">
    <tag k="description" v="Apartments are located in the center of..."/>
    <tag k="label" v="Jovan"/>
    <tag k="website" v="http://travel2macedonia.com.mk/travel-to-macedonia/accommodation/ohrid/apartments/jovan"/>
    <tag k="category" v="accommodation"/>
  </node>
  <node id="-41" lat="41.1124202892247" lon="20.7977414131165">
    <tag k="description" v="Two New luxuryous 2+1 apatrments in old..."/>
    <tag k="label" v="Donev"/>
    <tag k="website" v="http://travel2macedonia.com.mk/travel-to-macedonia/accommodation/ohrid/apartments/donev"/>
    <tag k="category" v="accommodation"/>
  </node>
  <node id="-42" lat="41.1763928861233" lon="20.6784152984619">
    <tag k="description" v="Villa Nestor is located in the center..."/>
    <tag k="label" v="Nestor"/>
    <tag k="website" v="http://travel2macedonia.com.mk/travel-to-macedonia/accommodation/struga/apartments/villa-nestor"/>
    <tag k="category" v="accommodation"/>
  </node>
  <node id="-43" lat="41.115625" lon="20.799447">
    <tag k="description" v="Family run guest house. We offer apartments..."/>
    <tag k="label" v="Anastacia Home Stay"/>
    <tag k="website" v="http://travel2macedonia.com.mk/travel-to-macedonia/accommodation/ohrid/rooms/anastacia-home-stay"/>
    <tag k="category" v="accommodation"/>
  </node>
  <node id="-44" lat="41.1093606779" lon="20.8079606295">
    <tag k="description" v="Typical rooms. Each room has its own..."/>
    <tag k="label" v="Rimari"/>
    <tag k="website" v="http://travel2macedonia.com.mk/travel-to-macedonia/accommodation/ohrid/rooms/rimari"/>
    <tag k="category" v="accommodation"/>
  </node>
  <node id="-45" lat="41.0268267845" lon="20.8154010773">
    <tag k="description" v="Risto`s Guest House is located on the..."/>
    <tag k="label" v="Risto's Guest House"/>
    <tag k="website" v="http://travel2macedonia.com.mk/travel-to-macedonia/accommodation/ohrid/rooms/ristos-guest-house"/>
    <tag k="category" v="accommodation"/>
  </node>
  <node id="-46" lat="41.1097891129" lon="20.8049511909">
    <tag k="description" v="Villa Dea is located on the shore..."/>
    <tag k="label" v="DEA"/>
    <tag k="website" v="http://travel2macedonia.com.mk/travel-to-macedonia/accommodation/ohrid/villa/dea"/>
    <tag k="category" v="accommodation"/>
  </node>
  <node id="-47" lat="41.1781129338" lon="22.7246779203">
    <tag k="description" v="If you want to have peace and..."/>
    <tag k="label" v="Dojrana"/>
    <tag k="website" v="http://travel2macedonia.com.mk/travel-to-macedonia/accommodation/dojran/villa/dojrana"/>
    <tag k="category" v="accommodation"/>
  </node>
  <node id="-48" lat="41.1123637058971" lon="20.7953006029129">
    <tag k="description" v="Located right near the cathedral church St...."/>
    <tag k="label" v="Germanoff"/>
    <tag k="website" v="http://travel2macedonia.com.mk/travel-to-macedonia/accommodation/ohrid/villa/germanoff"/>
    <tag k="category" v="accommodation"/>
  </node>
  <node id="-49" lat="41.1134104896" lon="20.7994312048">
    <tag k="description" v="Located in the downtown of Ohrid offering..."/>
    <tag k="label" v="Ginek"/>
    <tag k="website" v="http://travel2macedonia.com.mk/travel-to-macedonia/accommodation/ohrid/villa/ginek"/>
    <tag k="category" v="accommodation"/>
  </node>
  <node id="-50" lat="41.1083865841" lon="20.8112168312">
    <tag k="description" v="Vila Niko its located at just 100..."/>
    <tag k="label" v="Niko"/>
    <tag k="website" v="http://travel2macedonia.com.mk/travel-to-macedonia/accommodation/ohrid/villa/niko"/>
    <tag k="category" v="accommodation"/>
  </node>
  <node id="-51" lat="41.1123596642" lon="20.7950806618">
    <tag k="description" v="Villa St. Sofija is build in 2000..."/>
    <tag k="label" v="Sv. Sofija"/>
    <tag k="website" v="http://travel2macedonia.com.mk/travel-to-macedonia/accommodation/ohrid/villa/sv-sofija"/>
    <tag k="category" v="accommodation"/>
  </node>
  <node id="-52" lat="41.1069759414024" lon="20.8075046539307">
    <tag k="description" v="Accommodated in peaceful and quiet environment, only..."/>
    <tag k="label" v="Denarius"/>
    <tag k="website" v="http://travel2macedonia.com.mk/travel-to-macedonia/accommodation/ohrid/villa/denarius"/>
    <tag k="category" v="accommodation"/>
  </node>
  <node id="-53" lat="41.1180945409582" lon="20.8062279224396">
    <tag k="description" v="Villa Milka is luxurious touristic building in..."/>
    <tag k="label" v="Milka"/>
    <tag k="website" v="http://travel2macedonia.com.mk/travel-to-macedonia/accommodation/ohrid/villa/milka"/>
    <tag k="category" v="accommodation"/>
  </node>
  <node id="-54" lat="41.1126870385404" lon="20.7969957590103">
    <tag k="description" v="Exclusive 4 star Villa, located near the..."/>
    <tag k="label" v="St. Clement The Lesser"/>
    <tag k="website" v="http://travel2macedonia.com.mk/travel-to-macedonia/accommodation/ohrid/villa/saint-clement-the-lesser"/>
    <tag k="category" v="accommodation"/>
  </node>
  <node id="-55" lat="41.0919258523425" lon="20.8086097240448">
    <tag k="description" v="Aleksandar Villa is an exclusive 4 star..."/>
    <tag k="label" v="Aleksandar"/>
    <tag k="website" v="http://travel2macedonia.com.mk/travel-to-macedonia/accommodation/ohrid/villa/aleksandar"/>
    <tag k="category" v="accommodation"/>
  </node>
  <node id="-56" lat="41.9957325125561" lon="21.4300990104675">
    <tag k="description" v="Pivnica Restaurant is located in the city..."/>
    <tag k="label" v="Pivnica"/>
    <tag k="website" v="http://travel2macedonia.com.mk/travel-to-macedonia/restaurants/skopje/national/pivnica"/>
    <tag k="category" v="restaurants"/>
  </node>
  <node id="-57" lat="41.9946002493414" lon="21.4363324642181">
    <tag k="description" v="Ogniste Restaurant is located in the city..."/>
    <tag k="label" v="Ogniste"/>
    <tag k="website" v="http://travel2macedonia.com.mk/travel-to-macedonia/restaurants/skopje/national/ogniste"/>
    <tag k="category" v="restaurants"/>
  </node>
  <node id="-58" lat="41.031780" lon="21.338239">
    <tag k="description" v="Mosque"/>
    <tag k="label" v="Ajdar Kadi mosque"/>
    <tag k="website" v="http://travel2macedonia.com.mk/travel-to-macedonia/destinations/bitola/sights-to-visit/ajdar-kadi-mosque"/>
    <tag k="category" v="sights"/>
  </node>
  <node id="-59" lat="41.114781" lon="20.793922">
    <tag k="description" v="Finding sight"/>
    <tag k="label" v="Ancient Theatre"/>
    <tag k="website" v="http://travel2macedonia.com.mk/travel-to-macedonia/destinations/ohrid/sights-to-visit/ancient-theatre"/>
    <tag k="category" v="sights"/>
  </node>
  <node id="-60" lat="42.023028" lon="21.418705">
    <tag k="description" v="Other"/>
    <tag k="label" v="Aquaduct"/>
    <tag k="website" v="http://travel2macedonia.com.mk/travel-to-macedonia/destinations/skopje/sights-to-visit/aquaduct"/>
    <tag k="category" v="sights"/>
  </node>
  <node id="-61" lat="42.001904" lon="20.956249">
    <tag k="description" v="Monastery"/>
    <tag k="label" v="Arabati Baba Tekje Dervish monastery"/>
    <tag k="website" v="http://travel2macedonia.com.mk/travel-to-macedonia/destinations/tetovo/sights-to-visit/arabati-baba-tekje"/>
    <tag k="category" v="sights"/>
  </node>
  <node id="-62" lat="42.108650" lon="21.553373">
    <tag k="description" v="Monastery"/>
    <tag k="label" v="Ascension of Holy Mother church"/>
    <tag k="website" v="http://travel2macedonia.com.mk/travel-to-macedonia/destinations/kumanovo/sights-to-visit/ascension-of-holy-mother-matejce"/>
    <tag k="category" v="sights"/>
  </node>
  <node id="-63" lat="42.307546" lon="21.860915">
    <tag k="description" v="Memorial"/>
    <tag k="label" v="ASNOM memorial complex - Pelince"/>
    <tag k="website" v="http://travel2macedonia.com.mk/travel-to-macedonia/destinations/kumanovo/sights-to-visit/asnom-memorial-pelince"/>
    <tag k="category" v="sights"/>
  </node>
  <node id="-64" lat="41.737656" lon="22.186064">
    <tag k="description" v="Old town"/>
    <tag k="label" v="Astibo old town"/>
    <tag k="website" v="http://travel2macedonia.com.mk/travel-to-macedonia/destinations/stip/sights-to-visit/astibo"/>
    <tag k="category" v="sights"/>
  </node>
  <node id="-65" lat="42.018676" lon="20.960723">
    <tag k="description" v="Citadel/Fortress"/>
    <tag k="label" v="Baltepe Fortress"/>
    <tag k="website" v="http://travel2macedonia.com.mk/travel-to-macedonia/destinations/tetovo/sights-to-visit/baltepe-fortress"/>
    <tag k="category" v="sights"/>
  </node>
  <node id="-66" lat="41.382830" lon="22.754745">
    <tag k="description" v="Thermal bath"/>
    <tag k="label" v="Banjsko spa"/>
    <tag k="website" v="http://travel2macedonia.com.mk/travel-to-macedonia/destinations/strumica/sights-to-visit/banjsko-thermal-spa"/>
    <tag k="category" v="sights"/>
  </node>
  <node id="-67" lat="41.799839" lon="22.289768">
    <tag k="description" v="Old town"/>
    <tag k="label" v="Bargala old town"/>
    <tag k="website" v="http://travel2macedonia.com.mk/travel-to-macedonia/destinations/stip/sights-to-visit/bargala"/>
    <tag k="category" v="sights"/>
  </node>
  <node id="-68" lat="41.234898" lon="20.598421">
    <tag k="description" v="Finding sight"/>
    <tag k="label" v="Basilica in Oktisi village"/>
    <tag k="website" v="http://travel2macedonia.com.mk/travel-to-macedonia/destinations/struga/sights-to-visit/basilica-oktisi"/>
    <tag k="category" v="sights"/>
  </node>
  <node id="-69" lat="40.994281" lon="20.797977">
    <tag k="description" v="Museum"/>
    <tag k="label" v="Bay of Bones museum"/>
    <tag k="website" v="http://travel2macedonia.com.mk/travel-to-macedonia/destinations/ohrid/sights-to-visit/bay-of-bones"/>
    <tag k="category" v="sights"/>
  </node>
  <node id="-70" lat="41.671822" lon="22.900057">
    <tag k="description" v="Lake"/>
    <tag k="label" v="Berovo lake"/>
    <tag k="website" v="http://travel2macedonia.com.mk/travel-to-macedonia/destinations/berovo/sights-to-visit/berovo-lake"/>
    <tag k="category" v="sights"/>
  </node>
  <node id="-71" lat="41.795224" lon="20.910925">
    <tag k="description" v="Mosque"/>
    <tag k="label" v="Bey Mahala mosque"/>
    <tag k="website" v="http://travel2macedonia.com.mk/travel-to-macedonia/destinations/gostivar/sights-to-visit/bey-mahala"/>
    <tag k="category" v="sights"/>
  </node>
  <node id="-72" lat="41.737544" lon="22.192587">
    <tag k="description" v="Other"/>
    <tag k="label" v="Bezisten"/>
    <tag k="website" v="http://travel2macedonia.com.mk/travel-to-macedonia/destinations/stip/sights-to-visit/bezisten-stip"/>
    <tag k="category" v="sights"/>
  </node>
  <node id="-73" lat="41.031804" lon="21.334848">
    <tag k="description" v="Bazzar"/>
    <tag k="label" v="Bezisten"/>
    <tag k="website" v="http://travel2macedonia.com.mk/travel-to-macedonia/destinations/bitola/sights-to-visit/bezisten-bitola"/>
    <tag k="category" v="sights"/>
  </node>
  <node id="-74" lat="41.028721" lon="21.335707">
    <tag k="description" v="Church"/>
    <tag k="label" v="Catholic Cathedral"/>
    <tag k="website" v="http://travel2macedonia.com.mk/travel-to-macedonia/destinations/bitola/sights-to-visit/catholic-cathedral"/>
    <tag k="category" v="sights"/>
  </node>
  <node id="-75" lat="42.001154" lon="21.437287">
    <tag k="description" v="Other"/>
    <tag k="label" v="Cifte Amam"/>
    <tag k="website" v="http://travel2macedonia.com.mk/travel-to-macedonia/destinations/skopje/sights-to-visit/cifte-amam"/>
    <tag k="category" v="sights"/>
  </node>
  <node id="-76" lat="41.991012" lon="21.428983">
    <tag k="description" v="Museum"/>
    <tag k="label" v="City Museum of Skopje"/>
    <tag k="website" v="http://travel2macedonia.com.mk/travel-to-macedonia/destinations/skopje/sights-to-visit/skopje-city-museum"/>
    <tag k="category" v="sights"/>
  </node>
  <node id="-77" lat="42.001968" lon="21.441343">
    <tag k="description" v="Other"/>
    <tag k="label" v="Clock tower"/>
    <tag k="website" v="http://travel2macedonia.com.mk/travel-to-macedonia/destinations/skopje/sights-to-visit/clock-tower"/>
    <tag k="category" v="sights"/>
  </node>
  <node id="-78" lat="41.716765" lon="21.781495">
    <tag k="description" v="Other"/>
    <tag k="label" v="Clock tower"/>
    <tag k="website" v="http://travel2macedonia.com.mk/travel-to-macedonia/destinations/veles/sights-to-visit/clock-tower-veles"/>
    <tag k="category" v="sights"/>
  </node>
  <node id="-79" lat="41.030768" lon="21.333808">
    <tag k="description" v="Other"/>
    <tag k="label" v="Clock tower"/>
    <tag k="website" v="http://travel2macedonia.com.mk/travel-to-macedonia/destinations/bitola/sights-to-visit/clock-tower-bitola"/>
    <tag k="category" v="sights"/>
  </node>
  <node id="-80" lat="41.738400" lon="22.192624">
    <tag k="description" v="Architecture"/>
    <tag k="label" v="Clock tower"/>
    <tag k="website" v="http://travel2macedonia.com.mk/travel-to-macedonia/destinations/stip/sights-to-visit/clock-tower-stip"/>
    <tag k="category" v="sights"/>
  </node>
  <node id="-81" lat="41.185057" lon="22.719705">
    <tag k="description" v="Architecture"/>
    <tag k="label" v="Clock tower"/>
    <tag k="website" v="http://travel2macedonia.com.mk/travel-to-macedonia/destinations/dojran/sights-to-visit/clock-tower-dojran"/>
    <tag k="category" v="sights"/>
  </node>
  <node id="-82" lat="41.794924" lon="20.910877">
    <tag k="description" v="Other"/>
    <tag k="label" v="Clock Tower"/>
    <tag k="website" v="http://travel2macedonia.com.mk/travel-to-macedonia/destinations/gostivar/sights-to-visit/clock-tower-gostivar"/>
    <tag k="category" v="sights"/>
  </node>
  <node id="-83" lat="41.998667" lon="21.435721">
    <tag k="description" v="Public bath"/>
    <tag k="label" v="Daut Pasha's Amam"/>
    <tag k="website" v="http://travel2macedonia.com.mk/travel-to-macedonia/destinations/skopje/sights-to-visit/daut-pashas-bath"/>
    <tag k="category" v="sights"/>
  </node>
  <node id="-84" lat="41.558500" lon="20.530443">
    <tag k="description" v="Thermal bath"/>
    <tag k="label" v="Debar spa"/>
    <tag k="website" v="http://travel2macedonia.com.mk/travel-to-macedonia/destinations/debar/sights-to-visit/debar-spa"/>
    <tag k="category" v="sights"/>
  </node>
  <node id="-85" lat="41.033690" lon="21.338308">
    <tag k="description" v="Public bath"/>
    <tag k="label" v="Deboj Amam"/>
    <tag k="website" v="http://travel2macedonia.com.mk/travel-to-macedonia/destinations/bitola/sights-to-visit/deboj-turkish-amam"/>
    <tag k="category" v="sights"/>
  </node>
  <node id="-86" lat="41.541558" lon="21.237731">
    <tag k="description" v="Citadel/Fortress"/>
    <tag k="label" v="Devina Kula (Tower)"/>
    <tag k="website" v="http://travel2macedonia.com.mk/travel-to-macedonia/destinations/makedonski-brod/sights-to-visit/devina-kula"/>
    <tag k="category" v="sights"/>
  </node>
  <node id="-87" lat="41.187229" lon="22.724361">
    <tag k="description" v="Lake"/>
    <tag k="label" v="Dojran lake"/>
    <tag k="website" v="http://travel2macedonia.com.mk/travel-to-macedonia/destinations/dojran/sights-to-visit/dojran-lake"/>
    <tag k="category" v="sights"/>
  </node>
  <node id="-88" lat="41.180317" lon="20.677321">
    <tag k="description" v="Museum"/>
    <tag k="label" v="Dr. Nikola Nezlobinski museum"/>
    <tag k="website" v="http://travel2macedonia.com.mk/travel-to-macedonia/destinations/struga/sights-to-visit/nezlobinski-museum"/>
    <tag k="category" v="sights"/>
  </node>
  <node id="-89" lat="41.026357" lon="20.815787">
    <tag k="description" v="Village"/>
    <tag k="label" v="Elsani village"/>
    <tag k="website" v="http://travel2macedonia.com.mk/travel-to-macedonia/destinations/ohrid/sights-to-visit/elsani-village"/>
    <tag k="category" v="sights"/>
  </node>
  <node id="-90" lat="42.137751" lon="21.715207">
    <tag k="description" v="Mosque"/>
    <tag k="label" v="Eski mosque"/>
    <tag k="website" v="http://travel2macedonia.com.mk/travel-to-macedonia/destinations/kumanovo/sights-to-visit/eski-mosque"/>
    <tag k="category" v="sights"/>
  </node>
  <node id="-91" lat="42.032448" lon="20.997984">
    <tag k="description" v="Museum"/>
    <tag k="label" v="Ethno museum"/>
    <tag k="website" v="http://travel2macedonia.com.mk/travel-to-macedonia/destinations/tetovo/sights-to-visit/ethno-museum"/>
    <tag k="category" v="sights"/>
  </node>
  <node id="-92" lat="41.993934" lon="21.431660">
    <tag k="description" v="Other"/>
    <tag k="label" v="Feudal tower"/>
    <tag k="website" v="http://travel2macedonia.com.mk/travel-to-macedonia/destinations/skopje/sights-to-visit/feudal-tower"/>
    <tag k="category" v="sights"/>
  </node>
  <node id="-93" lat="41.918868" lon="22.407067">
    <tag k="description" v="Memorial"/>
    <tag k="label" v="Freedom memorial"/>
    <tag k="website" v="http://travel2macedonia.com.mk/travel-to-macedonia/destinations/kocani/sights-to-visit/freedom-memorial"/>
    <tag k="category" v="sights"/>
  </node>
  <node id="-94" lat="41.594295" lon="20.652881">
    <tag k="description" v="Village"/>
    <tag k="label" v="Galicnik village"/>
    <tag k="website" v="http://travel2macedonia.com.mk/travel-to-macedonia/destinations/debar/sights-to-visit/galicnik-village"/>
    <tag k="category" v="sights"/>
  </node>
  <node id="-95" lat="41.714579" lon="21.785288">
    <tag k="description" v="Monument"/>
    <tag k="label" v="Gemidzii monument"/>
    <tag k="website" v="http://travel2macedonia.com.mk/travel-to-macedonia/destinations/veles/sights-to-visit/gemidzii-monument"/>
    <tag k="category" v="sights"/>
  </node>
  <node id="-96" lat="40.868872" lon="20.989208">
    <tag k="description" v="Island"/>
    <tag k="label" v="Golem Grad island"/>
    <tag k="website" v="http://travel2macedonia.com.mk/travel-to-macedonia/destinations/resen/sights-to-visit/golem-grad-island"/>
    <tag k="category" v="sights"/>
  </node>
  <node id="-97" lat="41.787697" lon="20.573273">
    <tag k="description" v="Peak"/>
    <tag k="label" v="Golem Korab peak"/>
    <tag k="website" v="http://travel2macedonia.com.mk/travel-to-macedonia/destinations/gostivar/sights-to-visit/golem-korab-peak"/>
    <tag k="category" v="sights"/>
  </node>
  <node id="-98" lat="41.224247" lon="20.557137">
    <tag k="description" v="Village"/>
    <tag k="label" v="Gorna Belica village"/>
    <tag k="website" v="http://travel2macedonia.com.mk/travel-to-macedonia/destinations/struga/sights-to-visit/gorna-belica-village"/>
    <tag k="category" v="sights"/>
  </node>
  <node id="-99" lat="41.175165" lon="20.684788">
    <tag k="description" v="Monastery"/>
    <tag k="label" v="Halveti Tekje"/>
    <tag k="website" v="http://travel2macedonia.com.mk/travel-to-macedonia/destinations/struga/sights-to-visit/halveti-tekje"/>
    <tag k="category" v="sights"/>
  </node>
  <node id="-100" lat="41.011252" lon="21.342101">
    <tag k="description" v="Old town"/>
    <tag k="label" v="Heraklea Lynkestis old town"/>
    <tag k="website" v="http://travel2macedonia.com.mk/travel-to-macedonia/destinations/bitola/sights-to-visit/heraklea-lynkestis"/>
    <tag k="category" v="sights"/>
  </node>
  <node id="-101" lat="41.112255" lon="20.797291">
    <tag k="description" v="Church"/>
    <tag k="label" v="Holy Mother Bolnicka church"/>
    <tag k="website" v="http://travel2macedonia.com.mk/travel-to-macedonia/destinations/ohrid/sights-to-visit/holy-mother-bolnicka-church"/>
    <tag k="category" v="sights"/>
  </node>
  <node id="-102" lat="41.793161" lon="20.911006">
    <tag k="description" v="Church"/>
    <tag k="label" v="Holy Mother of God church"/>
    <tag k="website" v="http://travel2macedonia.com.mk/travel-to-macedonia/destinations/gostivar/sights-to-visit/holy-mother-of-god-gostivar"/>
    <tag k="category" v="sights"/>
  </node>
  <node id="-103" lat="41.030384" lon="21.338856">
    <tag k="description" v="Church"/>
    <tag k="label" v="Holy Mother of God church"/>
    <tag k="website" v="http://travel2macedonia.com.mk/travel-to-macedonia/destinations/bitola/sights-to-visit/holy-mother-of-god-bitola"/>
    <tag k="category" v="sights"/>
  </node>
  <node id="-104" lat="41.474278" lon="22.563407">
    <tag k="description" v="Monastery"/>
    <tag k="label" v="Holy Mother of God Eleusa church"/>
    <tag k="website" v="http://travel2macedonia.com.mk/travel-to-macedonia/destinations/strumica/sights-to-visit/holy-mother-of-god-eleusa-church"/>
    <tag k="category" v="sights"/>
  </node>
  <node id="-105" lat="41.114352" lon="20.795778">
    <tag k="description" v="Church"/>
    <tag k="label" v="Holy Mother of God Perivleptos church"/>
    <tag k="website" v="http://travel2macedonia.com.mk/travel-to-macedonia/destinations/ohrid/sights-to-visit/holy-mother-of-god-perivleptos-church"/>
    <tag k="category" v="sights"/>
  </node>
  <node id="-106" lat="41.459260" lon="20.935457">
    <tag k="description" v="Monastery"/>
    <tag k="label" v="Holy Mother of God the Cleanest monastery"/>
    <tag k="website" v="http://travel2macedonia.com.mk/travel-to-macedonia/destinations/kicevo/sights-to-visit/holy-mother-of-god-cleanest-monastery"/>
    <tag k="category" v="sights"/>
  </node>
  <node id="-107" lat="42.000800" lon="21.435737">
    <tag k="description" v="Church"/>
    <tag k="label" v="Holy Saviour church"/>
    <tag k="website" v="http://travel2macedonia.com.mk/travel-to-macedonia/destinations/skopje/sights-to-visit/holy-saviour-church"/>
    <tag k="category" v="sights"/>
  </node>
  <node id="-108" lat="41.734758" lon="22.184749">
    <tag k="description" v="Church"/>
    <tag k="label" v="Holy Saviour church"/>
    <tag k="website" v="http://travel2macedonia.com.mk/travel-to-macedonia/destinations/stip/sights-to-visit/holy-saviour-church-stip"/>
    <tag k="category" v="sights"/>
  </node>
  <node id="-109" lat="42.134529" lon="21.721408">
    <tag k="description" v="Church"/>
    <tag k="label" v="Holy Trinity church"/>
    <tag k="website" v="http://travel2macedonia.com.mk/travel-to-macedonia/destinations/kumanovo/sights-to-visit/holy-trinity-church"/>
    <tag k="category" v="sights"/>
  </node>
  <node id="-110" lat="41.635139" lon="22.467706">
    <tag k="description" v="Church"/>
    <tag k="label" v="Holy Trinity church"/>
    <tag k="website" v="http://travel2macedonia.com.mk/travel-to-macedonia/destinations/radovis/sights-to-visit/holy-trinity-church-radovis"/>
    <tag k="category" v="sights"/>
  </node>
  <node id="-111" lat="41.716245" lon="21.782702">
    <tag k="description" v="Monument"/>
    <tag k="label" v="Ilinden rebels monument"/>
    <tag k="website" v="http://travel2macedonia.com.mk/travel-to-macedonia/destinations/veles/sights-to-visit/ilinden-rebels-monument"/>
    <tag k="category" v="sights"/>
  </node>
  <node id="-112" lat="41.023783" lon="21.335514">
    <tag k="description" v="Museum"/>
    <tag k="label" v="Institute for preservation of monuments of culture"/>
    <tag k="website" v="http://travel2macedonia.com.mk/travel-to-macedonia/destinations/bitola/sights-to-visit/institute-museum-bitola"/>
    <tag k="category" v="sights"/>
  </node>
  <node id="-113" lat="41.031966" lon="21.333958">
    <tag k="description" v="Mosque"/>
    <tag k="label" v="Isak Celebi mosque"/>
    <tag k="website" v="http://travel2macedonia.com.mk/travel-to-macedonia/destinations/bitola/sights-to-visit/isak-celebi-mosque"/>
    <tag k="category" v="sights"/>
  </node>
  <node id="-114" lat="41.737632" lon="22.186160">
    <tag k="description" v="Citadel/Fortress"/>
    <tag k="label" v="Isar fortress"/>
    <tag k="website" v="http://travel2macedonia.com.mk/travel-to-macedonia/destinations/stip/sights-to-visit/isar-fortress"/>
    <tag k="category" v="sights"/>
  </node>
  <node id="-115" lat="41.030647" lon="21.334843">
    <tag k="description" v="Mosque"/>
    <tag k="label" v="Jeni mosque"/>
    <tag k="website" v="http://travel2macedonia.com.mk/travel-to-macedonia/destinations/bitola/sights-to-visit/jeni-mosque"/>
    <tag k="category" v="sights"/>
  </node>
  <node id="-116" lat="41.039849" lon="21.346833">
    <tag k="description" v="Other"/>
    <tag k="label" v="Jewish cemetary"/>
    <tag k="website" v="http://travel2macedonia.com.mk/travel-to-macedonia/destinations/bitola/sights-to-visit/jewish-cemetary"/>
    <tag k="category" v="sights"/>
  </node>
  <node id="-117" lat="42.000903" lon="21.432057">
    <tag k="description" v="Citadel/Fortress"/>
    <tag k="label" v="Kale fortress"/>
    <tag k="website" v="http://travel2macedonia.com.mk/travel-to-macedonia/destinations/skopje/sights-to-visit/kale-fortress"/>
    <tag k="category" v="sights"/>
  </node>
  <node id="-118" lat="42.000110" lon="21.436783">
    <tag k="description" v="Inn"/>
    <tag k="label" v="Kapan An"/>
    <tag k="website" v="http://travel2macedonia.com.mk/travel-to-macedonia/destinations/skopje/sights-to-visit/kapan-an"/>
    <tag k="category" v="sights"/>
  </node>
  <node id="-119" lat="41.897326" lon="21.693964">
    <tag k="description" v="Thermal bath"/>
    <tag k="label" v="Katlanovo spa"/>
    <tag k="website" v="http://travel2macedonia.com.mk/travel-to-macedonia/destinations/skopje/sights-to-visit/katlanovo-thermal-spa"/>
    <tag k="category" v="sights"/>
  </node>
  <node id="-120" lat="41.733196" lon="22.176011">
    <tag k="description" v="Thermal bath"/>
    <tag k="label" v="Kezhovica spa"/>
    <tag k="website" v="http://travel2macedonia.com.mk/travel-to-macedonia/destinations/stip/sights-to-visit/kezhovica-thermal-spa"/>
    <tag k="category" v="sights"/>
  </node>
  <node id="-121" lat="41.513012" lon="20.966291">
    <tag k="description" v="Citadel/Fortress"/>
    <tag k="label" v="Kitino Kale fortress"/>
    <tag k="website" v="http://travel2macedonia.com.mk/travel-to-macedonia/destinations/kicevo/sights-to-visit/kitino-kale-fortress"/>
    <tag k="category" v="sights"/>
  </node>
  <node id="-122" lat="42.263018" lon="21.953688">
    <tag k="description" v="Finding sight"/>
    <tag k="label" v="Kokino megalithic observatory"/>
    <tag k="website" v="http://travel2macedonia.com.mk/travel-to-macedonia/destinations/kumanovo/sights-to-visit/kokino-megalithic-observatory"/>
    <tag k="category" v="sights"/>
  </node>
  <node id="-123" lat="41.368629" lon="22.807360">
    <tag k="description" v="Waterfall"/>
    <tag k="label" v="Kolesino waterfall"/>
    <tag k="website" v="http://travel2macedonia.com.mk/travel-to-macedonia/destinations/strumica/sights-to-visit/kolesino-waterfall"/>
    <tag k="category" v="sights"/>
  </node>
  <node id="-124" lat="41.496878" lon="22.378614">
    <tag k="description" v="Monastery"/>
    <tag k="label" v="Konce monastery"/>
    <tag k="website" v="http://travel2macedonia.com.mk/travel-to-macedonia/destinations/radovis/sights-to-visit/konce-monastery"/>
    <tag k="category" v="sights"/>
  </node>
  <node id="-125" lat="41.532098" lon="20.577393">
    <tag k="description" v="Thermal bath"/>
    <tag k="label" v="Kosovrasti spa"/>
    <tag k="website" v="http://travel2macedonia.com.mk/travel-to-macedonia/destinations/debar/sights-to-visit/kosovrasti-spa"/>
    <tag k="category" v="sights"/>
  </node>
  <node id="-126" lat="41.723228" lon="21.788571">
    <tag k="description" v="Memorial"/>
    <tag k="label" v="Kosturnica memorial"/>
    <tag k="website" v="http://travel2macedonia.com.mk/travel-to-macedonia/destinations/veles/sights-to-visit/veles-kosturnica"/>
    <tag k="category" v="sights"/>
  </node>
  <node id="-127" lat="41.866748" lon="21.190567">
    <tag k="description" v="Lake"/>
    <tag k="label" v="Kozjak lake"/>
    <tag k="website" v="http://travel2macedonia.com.mk/travel-to-macedonia/destinations/skopje/sights-to-visit/kozjak-lake"/>
    <tag k="category" v="sights"/>
  </node>
  <node id="-128" lat="41.178557" lon="22.200150">
    <tag k="description" v="Ski resort"/>
    <tag k="label" v="Kozuf ski resort"/>
    <tag k="website" v="http://travel2macedonia.com.mk/travel-to-macedonia/destinations/gevgelija/sights-to-visit/kozuf-ski-resort"/>
    <tag k="category" v="sights"/>
  </node>
  <node id="-129" lat="42.079361" lon="22.182534">
    <tag k="description" v="Architecture"/>
    <tag k="label" v="Kratovo bridges"/>
    <tag k="website" v="http://travel2macedonia.com.mk/travel-to-macedonia/destinations/kratovo/sights-to-visit/kratovo-bridges"/>
    <tag k="category" v="sights"/>
  </node>
  <node id="-130" lat="42.078688" lon="22.179492">
    <tag k="description" v="Architecture"/>
    <tag k="label" v="Kratovo towers"/>
    <tag k="website" v="http://travel2macedonia.com.mk/travel-to-macedonia/destinations/kratovo/sights-to-visit/kratovo-towers"/>
    <tag k="category" v="sights"/>
  </node>
  <node id="-131" lat="41.366680" lon="21.246958">
    <tag k="description" v="Museum"/>
    <tag k="label" v="Krusevo Foundry Museum"/>
    <tag k="website" v="http://travel2macedonia.com.mk/travel-to-macedonia/destinations/krusevo/sights-to-visit/krusevo-foundry-museum"/>
    <tag k="category" v="sights"/>
  </node>
  <node id="-132" lat="41.368194" lon="21.248996">
    <tag k="description" v="Architecture"/>
    <tag k="label" v="Krusevo old town architecture"/>
    <tag k="website" v="http://travel2macedonia.com.mk/travel-to-macedonia/destinations/krusevo/sights-to-visit/krusevo-old-town-architecture"/>
    <tag k="category" v="sights"/>
  </node>
  <node id="-133" lat="42.003140" lon="21.437073">
    <tag k="description" v="Inn"/>
    <tag k="label" v="Kursumli An"/>
    <tag k="website" v="http://travel2macedonia.com.mk/travel-to-macedonia/destinations/skopje/sights-to-visit/kursumli-an"/>
    <tag k="category" v="sights"/>
  </node>
  <node id="-134" lat="41.112461" lon="20.795939">
    <tag k="description" v="Open-air museum"/>
    <tag k="label" v="Lapidarium museum"/>
    <tag k="website" v="http://travel2macedonia.com.mk/travel-to-macedonia/destinations/ohrid/sights-to-visit/lapidarium"/>
    <tag k="category" v="sights"/>
  </node>
  <node id="-135" lat="42.013264" lon="22.228281">
    <tag k="description" v="Monastery"/>
    <tag k="label" v="Lesnovo monastery"/>
    <tag k="website" v="http://travel2macedonia.com.mk/travel-to-macedonia/destinations/probistip/sights-to-visit/lesnovo-monastery"/>
    <tag k="category" v="sights"/>
  </node>
  <node id="-136" lat="42.066909" lon="21.028009">
    <tag k="description" v="Monastery"/>
    <tag k="label" v="Lesok monastery complex"/>
    <tag k="website" v="http://travel2macedonia.com.mk/travel-to-macedonia/destinations/tetovo/sights-to-visit/lesok-monastery"/>
    <tag k="category" v="sights"/>
  </node>
  <node id="-137" lat="40.918604" lon="20.771520">
    <tag k="description" v="Village"/>
    <tag k="label" v="Ljubanista village"/>
    <tag k="website" v="http://travel2macedonia.com.mk/travel-to-macedonia/destinations/ohrid/sights-to-visit/ljubanista-village"/>
    <tag k="category" v="sights"/>
  </node>
  <node id="-138" lat="42.184784" lon="21.127278">
    <tag k="description" v="Refuge"/>
    <tag k="label" v="Ljuboten refuge"/>
    <tag k="website" v="http://travel2macedonia.com.mk/travel-to-macedonia/destinations/tetovo/sights-to-visit/ljuboten-refuge"/>
    <tag k="category" v="sights"/>
  </node>
  <node id="-139" lat="41.377388" lon="21.248395">
    <tag k="description" v="Memorial"/>
    <tag k="label" v="Makedonium - Ilinden memorial"/>
    <tag k="website" v="http://travel2macedonia.com.mk/travel-to-macedonia/destinations/krusevo/sights-to-visit/makedonium-memorial"/>
    <tag k="category" v="sights"/>
  </node>
  <node id="-140" lat="41.893556" lon="21.402268">
    <tag k="description" v="Monastery"/>
    <tag k="label" v="Marko's monastery"/>
    <tag k="website" v="http://travel2macedonia.com.mk/travel-to-macedonia/destinations/skopje/sights-to-visit/marko-monastery"/>
    <tag k="category" v="sights"/>
  </node>
  <node id="-141" lat="41.958916" lon="21.295624">
    <tag k="description" v="Canyon"/>
    <tag k="label" v="Matka canyon"/>
    <tag k="website" v="http://travel2macedonia.com.mk/travel-to-macedonia/destinations/skopje/sights-to-visit/matka-canyon"/>
    <tag k="category" v="sights"/>
  </node>
  <node id="-142" lat="41.692911" lon="20.761070">
    <tag k="description" v="Lake"/>
    <tag k="label" v="Mavrovo lake"/>
    <tag k="website" v="http://travel2macedonia.com.mk/travel-to-macedonia/destinations/mavrovo/sights-to-visit/mavrovo-lake"/>
    <tag k="category" v="sights"/>
  </node>
  <node id="-143" lat="41.659575" lon="20.669403">
    <tag k="description" v="National park"/>
    <tag k="label" v="Mavrovo National Park"/>
    <tag k="website" v="http://travel2macedonia.com.mk/travel-to-macedonia/destinations/gostivar/sights-to-visit/mavrovo-national-park"/>
    <tag k="category" v="sights"/>
  </node>
  <node id="-144" lat="41.337783" lon="21.257923">
    <tag k="description" v="Monument"/>
    <tag k="label" v="Meckin Kamen monument"/>
    <tag k="website" v="http://travel2macedonia.com.mk/travel-to-macedonia/destinations/krusevo/sights-to-visit/meckin-kamen"/>
    <tag k="category" v="sights"/>
  </node>
  <node id="-145" lat="41.178315" lon="20.677171">
    <tag k="description" v="Memorial house"/>
    <tag k="label" v="Miladinov brothers memorial house"/>
    <tag k="website" v="http://travel2macedonia.com.mk/travel-to-macedonia/destinations/struga/sights-to-visit/miladinov-brothers-memorial-house"/>
    <tag k="category" v="sights"/>
  </node>
  <node id="-146" lat="41.965426" lon="21.394587">
    <tag k="description" v="Monument"/>
    <tag k="label" v="Millenium Cross"/>
    <tag k="website" v="http://travel2macedonia.com.mk/travel-to-macedonia/destinations/skopje/sights-to-visit/millenium-cross"/>
    <tag k="category" v="sights"/>
  </node>
  <node id="-147" lat="41.773232" lon="21.760139">
    <tag k="description" v="Lake"/>
    <tag k="label" v="Mladost lake - Veles lake"/>
    <tag k="website" v="http://travel2macedonia.com.mk/travel-to-macedonia/destinations/veles/sights-to-visit/mladost-veles-lake"/>
    <tag k="category" v="sights"/>
  </node>
  <node id="-148" lat="41.848417" lon="22.417967">
    <tag k="description" v="Finding sight"/>
    <tag k="label" v="Morodvis basilica"/>
    <tag k="website" v="http://travel2macedonia.com.mk/travel-to-macedonia/destinations/kocani/sights-to-visit/morodvis-basilica"/>
    <tag k="category" v="sights"/>
  </node>
  <node id="-149" lat="41.993958" lon="21.430839">
    <tag k="description" v="Monument"/>
    <tag k="label" v="Mother Teresa monument"/>
    <tag k="website" v="http://travel2macedonia.com.mk/travel-to-macedonia/destinations/skopje/sights-to-visit/mother-teresa-monument"/>
    <tag k="category" v="sights"/>
  </node>
  <node id="-150" lat="42.000788" lon="21.437432">
    <tag k="description" v="Mosque"/>
    <tag k="label" v="Murat Pasha mosque"/>
    <tag k="website" v="http://travel2macedonia.com.mk/travel-to-macedonia/destinations/skopje/sights-to-visit/murat-pasha-mosque"/>
    <tag k="category" v="sights"/>
  </node>
  <node id="-151" lat="42.003849" lon="21.432889">
    <tag k="description" v="Museum"/>
    <tag k="label" v="Museum of Contemporary Art"/>
    <tag k="website" v="http://travel2macedonia.com.mk/travel-to-macedonia/destinations/skopje/sights-to-visit/museum-contemporary-art"/>
    <tag k="category" v="sights"/>
  </node>
  <node id="-152" lat="41.367598" lon="21.249940">
    <tag k="description" v="Museum"/>
    <tag k="label" v="Museum of Ilinden rebellion and Krusevo republic"/>
    <tag k="website" v="http://travel2macedonia.com.mk/travel-to-macedonia/destinations/krusevo/sights-to-visit/ilinden-rebellion-krusevo-republic-museum"/>
    <tag k="category" v="sights"/>
  </node>
  <node id="-153" lat="42.002605" lon="21.436107">
    <tag k="description" v="Museum"/>
    <tag k="label" v="Museum of Macedonia"/>
    <tag k="website" v="http://travel2macedonia.com.mk/travel-to-macedonia/destinations/skopje/sights-to-visit/museum-of-macedonia"/>
    <tag k="category" v="sights"/>
  </node>
  <node id="-154" lat="41.375585" lon="21.245606">
    <tag k="description" v="Museum"/>
    <tag k="label" v="Museum of National Liberation war"/>
    <tag k="website" v="http://travel2macedonia.com.mk/travel-to-macedonia/destinations/krusevo/sights-to-visit/national-liberation-war-museum"/>
    <tag k="category" v="sights"/>
  </node>
  <node id="-155" lat="42.005826" lon="21.417278">
    <tag k="description" v="Museum"/>
    <tag k="label" v="Museum of Natural History"/>
    <tag k="website" v="http://travel2macedonia.com.mk/travel-to-macedonia/destinations/skopje/sights-to-visit/museum-natural-history"/>
    <tag k="category" v="sights"/>
  </node>
  <node id="-156" lat="42.002019" lon="21.435463">
    <tag k="description" v="Mosque"/>
    <tag k="label" v="Mustapha Pasha mosque"/>
    <tag k="website" v="http://travel2macedonia.com.mk/travel-to-macedonia/destinations/skopje/sights-to-visit/mustapha-pasha-mosque"/>
    <tag k="category" v="sights"/>
  </node>
  <node id="-157" lat="41.736591" lon="22.189658">
    <tag k="description" v="Museum"/>
    <tag k="label" v="National museum"/>
    <tag k="website" v="http://travel2macedonia.com.mk/travel-to-macedonia/destinations/stip/sights-to-visit/national-museum"/>
    <tag k="category" v="sights"/>
  </node>
  <node id="-158" lat="41.112396" lon="20.796159">
    <tag k="description" v="Museum"/>
    <tag k="label" v="National Ohrid museum - House of Robevci family"/>
    <tag k="website" v="http://travel2macedonia.com.mk/travel-to-macedonia/destinations/ohrid/sights-to-visit/robevci-house-museum"/>
    <tag k="category" v="sights"/>
  </node>
  <node id="-159" lat="41.179171" lon="22.479701">
    <tag k="description" v="Thermal bath"/>
    <tag k="label" v="Negorci spa"/>
    <tag k="website" v="http://travel2macedonia.com.mk/travel-to-macedonia/destinations/gevgelija/sights-to-visit/negorci-thermal-spa"/>
    <tag k="category" v="sights"/>
  </node>
  <node id="-160" lat="41.367179" lon="21.250219">
    <tag k="description" v="Memorial house"/>
    <tag k="label" v="Nikola Martinovski memorial house"/>
    <tag k="website" v="http://travel2macedonia.com.mk/travel-to-macedonia/destinations/krusevo/sights-to-visit/nikola-martinovski-memorial-house"/>
    <tag k="category" v="sights"/>
  </node>
  <node id="-161" lat="41.734485" lon="22.180882">
    <tag k="description" v="Architecture"/>
    <tag k="label" v="Novo Selo architecture"/>
    <tag k="website" v="http://travel2macedonia.com.mk/travel-to-macedonia/destinations/stip/sights-to-visit/novo-selo-architecture"/>
    <tag k="category" v="sights"/>
  </node>
  <node id="-162" lat="41.114675" lon="20.800257">
    <tag k="description" v="Bazzar"/>
    <tag k="label" v="Ohrid bazzar"/>
    <tag k="website" v="http://travel2macedonia.com.mk/travel-to-macedonia/destinations/ohrid/sights-to-visit/ohrid-bazzar"/>
    <tag k="category" v="sights"/>
  </node>
  <node id="-163" lat="41.991060" lon="21.428919">
    <tag k="description" v="Other"/>
    <tag k="label" v="Old railway station"/>
    <tag k="website" v="http://travel2macedonia.com.mk/travel-to-macedonia/destinations/skopje/sights-to-visit/old-railway-station"/>
    <tag k="category" v="sights"/>
  </node>
  <node id="-164" lat="42.005719" lon="20.966806">
    <tag k="description" v="Mosque"/>
    <tag k="label" v="Painted mosque"/>
    <tag k="website" v="http://travel2macedonia.com.mk/travel-to-macedonia/destinations/tetovo/sights-to-visit/painted-mosque"/>
    <tag k="category" v="sights"/>
  </node>
  <node id="-165" lat="41.035147" lon="21.221831">
    <tag k="description" v="Ski resort"/>
    <tag k="label" v="Pelister ski resort"/>
    <tag k="website" v="http://travel2macedonia.com.mk/travel-to-macedonia/destinations/bitola/sights-to-visit/pelister-ski-resort"/>
    <tag k="category" v="sights"/>
  </node>
  <node id="-166" lat="41.549122" lon="21.241722">
    <tag k="description" v="Cave"/>
    <tag k="label" v="Pesna cave"/>
    <tag k="website" v="http://travel2macedonia.com.mk/travel-to-macedonia/destinations/makedonski-brod/sights-to-visit/pesna-cave"/>
    <tag k="category" v="sights"/>
  </node>
  <node id="-167" lat="41.015899" lon="20.809962">
    <tag k="description" v="Village"/>
    <tag k="label" v="Pestani village"/>
    <tag k="website" v="http://travel2macedonia.com.mk/travel-to-macedonia/destinations/ohrid/sights-to-visit/pestani-village"/>
    <tag k="category" v="sights"/>
  </node>
  <node id="-168" lat="41.343454" lon="21.963644">
    <tag k="description" v="Monastery"/>
    <tag k="label" v="Polog monastery"/>
    <tag k="website" v="http://travel2macedonia.com.mk/travel-to-macedonia/destinations/kavadarci/sights-to-visit/polog-monastery"/>
    <tag k="category" v="sights"/>
  </node>
  <node id="-169" lat="42.012411" lon="20.880461">
    <tag k="description" v="Ski resort"/>
    <tag k="label" v="Popova Sapka ski resort"/>
    <tag k="website" v="http://travel2macedonia.com.mk/travel-to-macedonia/destinations/tetovo/sights-to-visit/popova-sapka-ski-resort"/>
    <tag k="category" v="sights"/>
  </node>
  <node id="-170" lat="41.406911" lon="22.263429">
    <tag k="description" v="Old town"/>
    <tag k="label" v="Prosek (Stenae) old town"/>
    <tag k="website" v="http://travel2macedonia.com.mk/travel-to-macedonia/destinations/demir-kapija/sights-to-visit/prosek-stenae"/>
    <tag k="category" v="sights"/>
  </node>
  <node id="-171" lat="41.439188" lon="22.636364">
    <tag k="description" v="Museum"/>
    <tag k="label" v="Protection of Culture Heritage and Museum"/>
    <tag k="website" v="http://travel2macedonia.com.mk/travel-to-macedonia/destinations/strumica/sights-to-visit/protection-of-cultural-heritage-and-museum"/>
    <tag k="category" v="sights"/>
  </node>
  <node id="-172" lat="41.514956" lon="20.549047">
    <tag k="description" v="Monastery"/>
    <tag k="label" v="Rajcica monastery"/>
    <tag k="website" v="http://travel2macedonia.com.mk/travel-to-macedonia/destinations/debar/sights-to-visit/rajcica-monastery"/>
    <tag k="category" v="sights"/>
  </node>
  <node id="-173" lat="41.100504" lon="20.632410">
    <tag k="description" v="Other"/>
    <tag k="label" v="Remains of Via Egnatia road"/>
    <tag k="website" v="http://travel2macedonia.com.mk/travel-to-macedonia/destinations/struga/sights-to-visit/via-egnatia-remains"/>
    <tag k="category" v="sights"/>
  </node>
  <node id="-174" lat="41.088150" lon="21.015902">
    <tag k="description" v="Museum"/>
    <tag k="label" v="Resen museum"/>
    <tag k="website" v="http://travel2macedonia.com.mk/travel-to-macedonia/destinations/resen/sights-to-visit/resen-museum"/>
    <tag k="category" v="sights"/>
  </node>
  <node id="-175" lat="41.382428" lon="22.754284">
    <tag k="description" v="Finding sight"/>
    <tag k="label" v="Roman bath"/>
    <tag k="website" v="http://travel2macedonia.com.mk/travel-to-macedonia/destinations/strumica/sights-to-visit/roman-thermal-bath"/>
    <tag k="category" v="sights"/>
  </node>
  <node id="-176" lat="41.414185" lon="22.233517">
    <tag k="description" v="Other"/>
    <tag k="label" v="Royal wineries"/>
    <tag k="website" v="http://travel2macedonia.com.mk/travel-to-macedonia/destinations/demir-kapija/sights-to-visit/royal-wineries"/>
    <tag k="category" v="sights"/>
  </node>
  <node id="-177" lat="41.950514" lon="21.299164">
    <tag k="description" v="Monastery"/>
    <tag k="label" v="Saint Andrea monastery"/>
    <tag k="website" v="http://travel2macedonia.com.mk/travel-to-macedonia/destinations/skopje/sights-to-visit/saint-andrea-matka-monastery"/>
    <tag k="category" v="sights"/>
  </node>
  <node id="-178" lat="41.104579" lon="20.631938">
    <tag k="description" v="Church"/>
    <tag k="label" v="Saint Archangel Michael cave church"/>
    <tag k="website" v="http://travel2macedonia.com.mk/travel-to-macedonia/destinations/struga/sights-to-visit/saint-archangel-michael-cave-church"/>
    <tag k="category" v="sights"/>
  </node>
  <node id="-179" lat="41.738913" lon="22.187984">
    <tag k="description" v="Church"/>
    <tag k="label" v="Saint Archangel Michael church"/>
    <tag k="website" v="http://travel2macedonia.com.mk/travel-to-macedonia/destinations/stip/sights-to-visit/saint-archangel-michael-church"/>
    <tag k="category" v="sights"/>
  </node>
  <node id="-180" lat="41.700979" lon="22.859051">
    <tag k="description" v="Monastery"/>
    <tag k="label" v="Saint Archangel Michael monastery"/>
    <tag k="website" v="http://travel2macedonia.com.mk/travel-to-macedonia/destinations/berovo/sights-to-visit/saint-archangel-michael-monastery"/>
    <tag k="category" v="sights"/>
  </node>
  <node id="-181" lat="41.146491" lon="20.651336">
    <tag k="description" v="Church"/>
    <tag k="label" v="Saint Atanasius cave monastery"/>
    <tag k="website" v="http://travel2macedonia.com.mk/travel-to-macedonia/destinations/struga/sights-to-visit/saint-atanasius-cave-monastery"/>
    <tag k="category" v="sights"/>
  </node>
  <node id="-182" lat="41.998523" lon="21.426408">
    <tag k="description" v="Church"/>
    <tag k="label" v="Saint Clement of Ohrid church"/>
    <tag k="website" v="http://travel2macedonia.com.mk/travel-to-macedonia/destinations/skopje/sights-to-visit/saint-clement-church"/>
    <tag k="category" v="sights"/>
  </node>
  <node id="-183" lat="41.114065" lon="20.796427">
    <tag k="description" v="Church"/>
    <tag k="label" v="Saint Constantine and Helena church"/>
    <tag k="website" v="http://travel2macedonia.com.mk/travel-to-macedonia/destinations/ohrid/sights-to-visit/saint-constantine-helena-church"/>
    <tag k="category" v="sights"/>
  </node>
  <node id="-184" lat="41.029902" lon="21.333818">
    <tag k="description" v="Church"/>
    <tag k="label" v="Saint Demetrius church"/>
    <tag k="website" v="http://travel2macedonia.com.mk/travel-to-macedonia/destinations/bitola/sights-to-visit/saint-demetrius-church"/>
    <tag k="category" v="sights"/>
  </node>
  <node id="-185" lat="41.140593" lon="20.762894">
    <tag k="description" v="Finding sight"/>
    <tag k="label" v="Saint Erazmo basilica"/>
    <tag k="website" v="http://travel2macedonia.com.mk/travel-to-macedonia/destinations/ohrid/sights-to-visit/saint-erazmo-basilica"/>
    <tag k="category" v="sights"/>
  </node>
  <node id="-186" lat="41.177265" lon="20.674381">
    <tag k="description" v="Church"/>
    <tag k="label" v="Saint Gjorgi church"/>
    <tag k="website" v="http://travel2macedonia.com.mk/travel-to-macedonia/destinations/struga/sights-to-visit/saint-gjorgi-church"/>
    <tag k="category" v="sights"/>
  </node>
  <node id="-187" lat="42.198480" lon="21.828675">
    <tag k="description" v="Monastery"/>
    <tag k="label" v="Saint Gjorgi church"/>
    <tag k="website" v="http://travel2macedonia.com.mk/travel-to-macedonia/destinations/kumanovo/sights-to-visit/saint-gjorgi-staro-nagoricane-church"/>
    <tag k="category" v="sights"/>
  </node>
  <node id="-188" lat="40.985665" lon="21.069632">
    <tag k="description" v="Church"/>
    <tag k="label" v="Saint Gjorgi monastery"/>
    <tag k="website" v="http://travel2macedonia.com.mk/travel-to-macedonia/destinations/resen/sights-to-visit/saint-gjorgi-kurbinovo"/>
    <tag k="category" v="sights"/>
  </node>
  <node id="-189" lat="41.188812" lon="22.719104">
    <tag k="description" v="Church"/>
    <tag k="label" v="Saint Ilija church"/>
    <tag k="website" v="http://travel2macedonia.com.mk/travel-to-macedonia/destinations/dojran/sights-to-visit/saint-ilija-church"/>
    <tag k="category" v="sights"/>
  </node>
  <node id="-190" lat="42.208971" lon="22.362285">
    <tag k="description" v="Monastery"/>
    <tag k="label" v="Saint Joachim Osogovski monastery"/>
    <tag k="website" v="http://travel2macedonia.com.mk/travel-to-macedonia/destinations/kriva-palanka/sights-to-visit/saint-joachim-osogovski-monastery"/>
    <tag k="category" v="sights"/>
  </node>
  <node id="-191" lat="41.621153" lon="20.609515">
    <tag k="description" v="Monastery"/>
    <tag k="label" v="Saint Jovan Bigorski monastery"/>
    <tag k="website" v="http://travel2macedonia.com.mk/travel-to-macedonia/destinations/debar/sights-to-visit/saint-jovan-bigorski-monastery"/>
    <tag k="category" v="sights"/>
  </node>
  <node id="-192" lat="41.368178" lon="21.248653">
    <tag k="description" v="Church"/>
    <tag k="label" v="Saint Jovan church"/>
    <tag k="website" v="http://travel2macedonia.com.mk/travel-to-macedonia/destinations/krusevo/sights-to-visit/saint-jovan-church"/>
    <tag k="category" v="sights"/>
  </node>
  <node id="-193" lat="41.111175" lon="20.788772">
    <tag k="description" v="Monastery"/>
    <tag k="label" v="Saint Jovan Kaneo monastery"/>
    <tag k="website" v="http://travel2macedonia.com.mk/travel-to-macedonia/destinations/ohrid/sights-to-visit/saint-jovan-kaneo-monastery"/>
    <tag k="category" v="sights"/>
  </node>
  <node id="-194" lat="40.913934" lon="20.740621">
    <tag k="description" v="Monastery"/>
    <tag k="label" v="Saint Naum monastery"/>
    <tag k="website" v="http://travel2macedonia.com.mk/travel-to-macedonia/destinations/ohrid/sights-to-visit/saint-naum-monastery"/>
    <tag k="category" v="sights"/>
  </node>
  <node id="-195" lat="42.107711" lon="21.379716">
    <tag k="description" v="Monastery"/>
    <tag k="label" v="Saint Nikita monastery"/>
    <tag k="website" v="http://travel2macedonia.com.mk/travel-to-macedonia/destinations/skopje/sights-to-visit/saint-nikita-monastery"/>
    <tag k="category" v="sights"/>
  </node>
  <node id="-196" lat="41.112085" lon="20.797618">
    <tag k="description" v="Church"/>
    <tag k="label" v="Saint Nikola Bolnicki church"/>
    <tag k="website" v="http://travel2macedonia.com.mk/travel-to-macedonia/destinations/ohrid/sights-to-visit/saint-nikola-bolnicki-church"/>
    <tag k="category" v="sights"/>
  </node>
  <node id="-197" lat="42.137680" lon="21.721172">
    <tag k="description" v="Church"/>
    <tag k="label" v="Saint Nikola church"/>
    <tag k="website" v="http://travel2macedonia.com.mk/travel-to-macedonia/destinations/kumanovo/sights-to-visit/st-nikola-church"/>
    <tag k="category" v="sights"/>
  </node>
  <node id="-198" lat="41.660024" lon="20.735493">
    <tag k="description" v="Church"/>
    <tag k="label" v="Saint Nikola church"/>
    <tag k="website" v="http://travel2macedonia.com.mk/travel-to-macedonia/destinations/mavrovo/sights-to-visit/saint-nikola-mavrovo-church"/>
    <tag k="category" v="sights"/>
  </node>
  <node id="-199" lat="41.368113" lon="21.248524">
    <tag k="description" v="Church"/>
    <tag k="label" v="Saint Nikola church"/>
    <tag k="website" v="http://travel2macedonia.com.mk/travel-to-macedonia/destinations/krusevo/sights-to-visit/saint-nikola-church-krusevo"/>
    <tag k="category" v="sights"/>
  </node>
  <node id="-200" lat="41.112291" lon="20.794866">
    <tag k="description" v="Church"/>
    <tag k="label" v="Saint Nikola Gerakomija church"/>
    <tag k="website" v="http://travel2macedonia.com.mk/travel-to-macedonia/destinations/ohrid/sights-to-visit/saint-nikola-gerakomija"/>
    <tag k="category" v="sights"/>
  </node>
  <node id="-201" lat="41.952094" lon="21.303949">
    <tag k="description" v="Church"/>
    <tag k="label" v="Saint Nikola monastery"/>
    <tag k="website" v="http://travel2macedonia.com.mk/travel-to-macedonia/destinations/skopje/sights-to-visit/saint-nikola-matka-monastery"/>
    <tag k="category" v="sights"/>
  </node>
  <node id="-202" lat="41.112614" lon="20.791250">
    <tag k="description" v="Church"/>
    <tag k="label" v="Saint Pantelejmon (Plaosnik) church"/>
    <tag k="website" v="http://travel2macedonia.com.mk/travel-to-macedonia/destinations/ohrid/sights-to-visit/saint-pantelejmon-plaosnik-monastery"/>
    <tag k="category" v="sights"/>
  </node>
  <node id="-203" lat="41.706642" lon="21.780846">
    <tag k="description" v="Church"/>
    <tag k="label" v="Saint Pantelejmon church"/>
    <tag k="website" v="http://travel2macedonia.com.mk/travel-to-macedonia/destinations/veles/sights-to-visit/saint-pantelejmon-church"/>
    <tag k="category" v="sights"/>
  </node>
  <node id="-204" lat="41.976872" lon="21.374277">
    <tag k="description" v="Monastery"/>
    <tag k="label" v="Saint Pantelejmon monastery"/>
    <tag k="website" v="http://travel2macedonia.com.mk/travel-to-macedonia/destinations/skopje/sights-to-visit/saint-pantelejmon-monastery"/>
    <tag k="category" v="sights"/>
  </node>
  <node id="-205" lat="41.112109" lon="20.794190">
    <tag k="description" v="Church"/>
    <tag k="label" v="Saint Sophia church"/>
    <tag k="website" v="http://travel2macedonia.com.mk/travel-to-macedonia/destinations/ohrid/sights-to-visit/saint-sophia-church"/>
    <tag k="category" v="sights"/>
  </node>
  <node id="-206" lat="40.948869" lon="20.774707">
    <tag k="description" v="Monastery"/>
    <tag k="label" v="Saint Zaum monastery"/>
    <tag k="website" v="http://travel2macedonia.com.mk/travel-to-macedonia/destinations/ohrid/sights-to-visit/saint-zaum-monastery"/>
    <tag k="category" v="sights"/>
  </node>
  <node id="-207" lat="42.013176" lon="20.966860">
    <tag k="description" v="Church"/>
    <tag k="label" v="Saints Cyril and Methodius church"/>
    <tag k="website" v="http://travel2macedonia.com.mk/travel-to-macedonia/destinations/tetovo/sights-to-visit/saints-cyril-methodius-church"/>
    <tag k="category" v="sights"/>
  </node>
  <node id="-208" lat="41.115330" lon="20.791390">
    <tag k="description" v="Citadel/Fortress"/>
    <tag k="label" v="Samoil's fortress"/>
    <tag k="website" v="http://travel2macedonia.com.mk/travel-to-macedonia/destinations/ohrid/sights-to-visit/samoil-fortress"/>
    <tag k="category" v="sights"/>
  </node>
  <node id="-209" lat="41.651607" lon="20.734355">
    <tag k="description" v="Cave"/>
    <tag k="label" v="Sarkova Dupka cave"/>
    <tag k="website" v="http://travel2macedonia.com.mk/travel-to-macedonia/destinations/mavrovo/sights-to-visit/sarkova-dupka-cave"/>
    <tag k="category" v="sights"/>
  </node>
  <node id="-210" lat="42.016971" lon="21.391497">
    <tag k="description" v="Old town"/>
    <tag k="label" v="Scupi old town"/>
    <tag k="website" v="http://travel2macedonia.com.mk/travel-to-macedonia/destinations/skopje/sights-to-visit/scupi-old-town"/>
    <tag k="category" v="sights"/>
  </node>
  <node id="-211" lat="41.029150" lon="21.335299">
    <tag k="description" v="Other"/>
    <tag k="label" v="Shirok Sokak street"/>
    <tag k="website" v="http://travel2macedonia.com.mk/travel-to-macedonia/destinations/bitola/sights-to-visit/shirok-sokak"/>
    <tag k="category" v="sights"/>
  </node>
  <node id="-212" lat="41.502407" lon="20.514908">
    <tag k="description" v="Lake"/>
    <tag k="label" v="Shpilje lake - Debar lake"/>
    <tag k="website" v="http://travel2macedonia.com.mk/travel-to-macedonia/destinations/debar/sights-to-visit/shpilje-lake"/>
    <tag k="category" v="sights"/>
  </node>
  <node id="-213" lat="42.001792" lon="21.436901">
    <tag k="description" v="Bazzar"/>
    <tag k="label" v="Skopje Old Bazzar"/>
    <tag k="website" v="http://travel2macedonia.com.mk/travel-to-macedonia/destinations/skopje/sights-to-visit/old-skopje-bazzar"/>
    <tag k="category" v="sights"/>
  </node>
  <node id="-214" lat="41.409599" lon="21.110766">
    <tag k="description" v="Monument"/>
    <tag k="label" v="Sliva monument"/>
    <tag k="website" v="http://travel2macedonia.com.mk/travel-to-macedonia/destinations/krusevo/sights-to-visit/sliva-monument"/>
    <tag k="category" v="sights"/>
  </node>
  <node id="-215" lat="40.977954" lon="21.100445">
    <tag k="description" v="Monastery"/>
    <tag k="label" v="Slivnica monastery"/>
    <tag k="website" v="http://travel2macedonia.com.mk/travel-to-macedonia/destinations/resen/sights-to-visit/slivnica-monastery"/>
    <tag k="category" v="sights"/>
  </node>
  <node id="-216" lat="41.112614" lon="20.796883">
    <tag k="description" v="Church"/>
    <tag k="label" v="Small Saint Clement church"/>
    <tag k="website" v="http://travel2macedonia.com.mk/travel-to-macedonia/destinations/ohrid/sights-to-visit/small-saint-clement-church"/>
    <tag k="category" v="sights"/>
  </node>
  <node id="-217" lat="41.153390" lon="21.112032">
    <tag k="description" v="Memorial house"/>
    <tag k="label" v="Smilevo village"/>
    <tag k="website" v="http://travel2macedonia.com.mk/travel-to-macedonia/destinations/demir-hisar/sights-to-visit/smilevo-village"/>
    <tag k="category" v="sights"/>
  </node>
  <node id="-218" lat="41.365657" lon="22.899595">
    <tag k="description" v="Waterfall"/>
    <tag k="label" v="Smolare waterfall"/>
    <tag k="website" v="http://travel2macedonia.com.mk/travel-to-macedonia/destinations/strumica/sights-to-visit/smorale-waterfall"/>
    <tag k="category" v="sights"/>
  </node>
  <node id="-219" lat="41.703293" lon="21.404371">
    <tag k="description" v="Peak"/>
    <tag k="label" v="Solunska Glava peak"/>
    <tag k="website" v="http://travel2macedonia.com.mk/travel-to-macedonia/destinations/veles/sights-to-visit/solunska-glava-peak"/>
    <tag k="category" v="sights"/>
  </node>
  <node id="-220" lat="41.552783" lon="21.975060">
    <tag k="description" v="Old town"/>
    <tag k="label" v="Stobi old town"/>
    <tag k="website" v="http://travel2macedonia.com.mk/travel-to-macedonia/destinations/veles/sights-to-visit/stobi"/>
    <tag k="category" v="sights"/>
  </node>
  <node id="-221" lat="41.996944" lon="21.432996">
    <tag k="description" v="Other"/>
    <tag k="label" v="Stone bridge"/>
    <tag k="website" v="http://travel2macedonia.com.mk/travel-to-macedonia/destinations/skopje/sights-to-visit/stone-bridge-skopje"/>
    <tag k="category" v="sights"/>
  </node>
  <node id="-222" lat="41.240997" lon="22.075653">
    <tag k="description" v="Natural phenomenon"/>
    <tag k="label" v="Stone columns of Konopiste"/>
    <tag k="website" v="http://travel2macedonia.com.mk/travel-to-macedonia/destinations/kavadarci/sights-to-visit/stone-columns-konopiste"/>
    <tag k="category" v="sights"/>
  </node>
  <node id="-223" lat="42.105832" lon="22.055011">
    <tag k="description" v="Natural phenomenon"/>
    <tag k="label" v="Stone Columns of Kuklica"/>
    <tag k="website" v="http://travel2macedonia.com.mk/travel-to-macedonia/destinations/kratovo/sights-to-visit/stone-columns-kuklica"/>
    <tag k="category" v="sights"/>
  </node>
  <node id="-224" lat="41.177717" lon="20.677321">
    <tag k="description" v="Bazzar"/>
    <tag k="label" v="Struga Old Bazzar"/>
    <tag k="website" v="http://travel2macedonia.com.mk/travel-to-macedonia/destinations/struga/sights-to-visit/old-struga-bazzar"/>
    <tag k="category" v="sights"/>
  </node>
  <node id="-225" lat="42.001673" lon="21.437759">
    <tag k="description" v="Inn"/>
    <tag k="label" v="Suli An"/>
    <tag k="website" v="http://travel2macedonia.com.mk/travel-to-macedonia/destinations/skopje/sights-to-visit/suli-an"/>
    <tag k="category" v="sights"/>
  </node>
  <node id="-226" lat="41.408102" lon="21.220930">
    <tag k="description" v="Monastery"/>
    <tag k="label" v="Sveto Preobrazenie monastery"/>
    <tag k="website" v="http://travel2macedonia.com.mk/travel-to-macedonia/destinations/krusevo/sights-to-visit/sveto-preobrazenie-monastery"/>
    <tag k="category" v="sights"/>
  </node>
  <node id="-227" lat="41.391234" lon="21.949310">
    <tag k="description" v="Lake"/>
    <tag k="label" v="Tikvesh lake"/>
    <tag k="website" v="http://travel2macedonia.com.mk/travel-to-macedonia/destinations/kavadarci/sights-to-visit/tikvesh-lake"/>
    <tag k="category" v="sights"/>
  </node>
  <node id="-228" lat="41.362493" lon="21.538696">
    <tag k="description" v="Citadel/Fortress"/>
    <tag k="label" v="Towers of Marko fortress"/>
    <tag k="website" v="http://travel2macedonia.com.mk/travel-to-macedonia/destinations/prilep/sights-to-visit/towers-of-marko-fortress"/>
    <tag k="category" v="sights"/>
  </node>
  <node id="-229" lat="41.404111" lon="21.538010">
    <tag k="description" v="Monastery"/>
    <tag k="label" v="Treskavec monastery"/>
    <tag k="website" v="http://travel2macedonia.com.mk/travel-to-macedonia/destinations/prilep/sights-to-visit/treskavec-monastery"/>
    <tag k="category" v="sights"/>
  </node>
  <node id="-230" lat="40.960505" lon="20.782850">
    <tag k="description" v="Village"/>
    <tag k="label" v="Trpejca village"/>
    <tag k="website" v="http://travel2macedonia.com.mk/travel-to-macedonia/destinations/ohrid/sights-to-visit/trpejca-village"/>
    <tag k="category" v="sights"/>
  </node>
  <node id="-231" lat="42.006265" lon="20.967386">
    <tag k="description" v="Public bath"/>
    <tag k="label" v="Turkish Amam"/>
    <tag k="website" v="http://travel2macedonia.com.mk/travel-to-macedonia/destinations/tetovo/sights-to-visit/turkish-amam"/>
    <tag k="category" v="sights"/>
  </node>
  <node id="-232" lat="41.185203" lon="22.719941">
    <tag k="description" v="Public bath"/>
    <tag k="label" v="Turkish Amam"/>
    <tag k="website" v="http://travel2macedonia.com.mk/travel-to-macedonia/destinations/dojran/sights-to-visit/turkish-amam-dojran"/>
    <tag k="category" v="sights"/>
  </node>
  <node id="-233" lat="41.431064" lon="22.633810">
    <tag k="description" v="Citadel/Fortress"/>
    <tag k="label" v="Tzarevi Kuli fortress"/>
    <tag k="website" v="http://travel2macedonia.com.mk/travel-to-macedonia/destinations/strumica/sights-to-visit/tzarevi-kuli-fortress"/>
    <tag k="category" v="sights"/>
  </node>
  <node id="-234" lat="41.178428" lon="20.677450">
    <tag k="description" v="Gallery"/>
    <tag k="label" v="Vangel Kodzoman gallery"/>
    <tag k="website" v="http://travel2macedonia.com.mk/travel-to-macedonia/destinations/struga/sights-to-visit/vangel-kodzoman-gallery"/>
    <tag k="category" v="sights"/>
  </node>
  <node id="-235" lat="41.148511" lon="22.522316">
    <tag k="description" v="Old town"/>
    <tag k="label" v="Vardarski Rid site"/>
    <tag k="website" v="http://travel2macedonia.com.mk/travel-to-macedonia/destinations/gevgelija/sights-to-visit/vardarski-rid"/>
    <tag k="category" v="sights"/>
  </node>
  <node id="-236" lat="41.360584" lon="21.534426">
    <tag k="description" v="Monastery"/>
    <tag k="label" v="Varos monastery"/>
    <tag k="website" v="http://travel2macedonia.com.mk/travel-to-macedonia/destinations/prilep/sights-to-visit/varos-monastery"/>
    <tag k="category" v="sights"/>
  </node>
  <node id="-237" lat="41.395934" lon="22.035227">
    <tag k="description" v="Monument"/>
    <tag k="label" v="Vatasha village"/>
    <tag k="website" v="http://travel2macedonia.com.mk/travel-to-macedonia/destinations/kavadarci/sights-to-visit/vatasha-village"/>
    <tag k="category" v="sights"/>
  </node>
  <node id="-238" lat="41.239996" lon="20.592327">
    <tag k="description" v="Village"/>
    <tag k="label" v="Vevcani village"/>
    <tag k="website" v="http://travel2macedonia.com.mk/travel-to-macedonia/destinations/struga/sights-to-visit/vevcani-village"/>
    <tag k="category" v="sights"/>
  </node>
  <node id="-239" lat="41.874929" lon="22.518454">
    <tag k="description" v="Finding sight"/>
    <tag k="label" v="Vinicko Kale site"/>
    <tag k="website" v="http://travel2macedonia.com.mk/travel-to-macedonia/destinations/vinica/sights-to-visit/vinicko-kale-archeological-site"/>
    <tag k="category" v="sights"/>
  </node>
  <node id="-240" lat="41.996083" lon="21.439455">
    <tag k="description" v="Church"/>
    <tag k="label" v="Virgin Mary church"/>
    <tag k="website" v="http://travel2macedonia.com.mk/travel-to-macedonia/destinations/skopje/sights-to-visit/virgin-mary-church"/>
    <tag k="category" v="sights"/>
  </node>
  <node id="-241" lat="41.450591" lon="22.590251">
    <tag k="description" v="Monastery"/>
    <tag k="label" v="Vodoca monastery"/>
    <tag k="website" v="http://travel2macedonia.com.mk/travel-to-macedonia/destinations/strumica/sights-to-visit/vodoca-monastery"/>
    <tag k="category" v="sights"/>
  </node>
  <node id="-242" lat="41.933827" lon="21.295795">
    <tag k="description" v="Cave"/>
    <tag k="label" v="Vrelo cave"/>
    <tag k="website" v="http://travel2macedonia.com.mk/travel-to-macedonia/destinations/skopje/sights-to-visit/vrelo-cave"/>
    <tag k="category" v="sights"/>
  </node>
  <node id="-243" lat="41.764782" lon="20.837417">
    <tag k="description" v="Spring"/>
    <tag k="label" v="Vrutok spring of Vardar river"/>
    <tag k="website" v="http://travel2macedonia.com.mk/travel-to-macedonia/destinations/gostivar/sights-to-visit/vrutok-spring"/>
    <tag k="category" v="sights"/>
  </node>
  <node id="-244" lat="41.637833" lon="20.722275">
    <tag k="description" v="Ski resort"/>
    <tag k="label" v="Zare Lazarevski ski resort"/>
    <tag k="website" v="http://travel2macedonia.com.mk/travel-to-macedonia/destinations/mavrovo/sights-to-visit/zare-lazarevski-ski-resort"/>
    <tag k="category" v="sights"/>
  </node>
  <node id="-245" lat="42.152269" lon="21.825628">
    <tag k="description" v="Other"/>
    <tag k="label" v="Zebrnjak memorial"/>
    <tag k="website" v="http://travel2macedonia.com.mk/travel-to-macedonia/destinations/kumanovo/sights-to-visit/zebrnjak-memorial"/>
    <tag k="category" v="sights"/>
  </node>
  <node id="-246" lat="41.521206" lon="21.341543">
    <tag k="description" v="Monastery"/>
    <tag k="label" v="Zrze monastery"/>
    <tag k="website" v="http://travel2macedonia.com.mk/travel-to-macedonia/destinations/prilep/sights-to-visit/zrze-monastery"/>
    <tag k="category" v="sights"/>
  </node>
  <node id="-247" lat="41.485064" lon="22.091017">
    <tag k="description" v="Museum"/>
    <tag k="label" v="Negotino museum"/>
    <tag k="website" v="http://travel2macedonia.com.mk/travel-to-macedonia/destinations/negotino/sights-to-visit/negotino-museum"/>
    <tag k="category" v="sights"/>
  </node>
  <node id="-248" lat="42.237985" lon="21.702825">
    <tag k="description" v="Border crossing point with Serbia. Altitude: 369 meters."/>
    <tag k="label" v="Tabanovce"/>
    <tag k="website" v="#"/>
    <tag k="category" v="other"/>
  </node>
  <node id="-249" lat="42.168193" lon="21.174431">
    <tag k="description" v="Border crossing with Kosovo. Altitude: 771m."/>
    <tag k="label" v="Jazince"/>
    <tag k="website" v="#"/>
    <tag k="category" v="other"/>
  </node>
  <node id="-250" lat="41.956474" lon="21.628282">
    <tag k="description" v="Airport "/>
    <tag k="label" v="Alexander the Great"/>
    <tag k="website" v="http://skp.airports.com.mk"/>
    <tag k="category" v="other"/>
  </node>
  <node id="-251" lat="41.181173" lon="20.745749">
    <tag k="description" v="Airport "/>
    <tag k="label" v="Saint Paul the Apostle"/>
    <tag k="website" v="http://ohd.airports.com.mk"/>
    <tag k="category" v="other"/>
  </node>
  <node id="-252" lat="41.091805" lon="20.608764">
    <tag k="description" v="Border crossing with Albania.  Altitude: 989m."/>
    <tag k="label" v="Kjafasan"/>
    <tag k="website" v="#"/>
    <tag k="category" v="other"/>
  </node>
  <node id="-253" lat="42.142178" lon="21.302164">
    <tag k="description" v="Border point with Serbia. Altitude: 369m."/>
    <tag k="label" v="Blace"/>
    <tag k="website" v="#"/>
    <tag k="category" v="other"/>
  </node>
  <node id="-254" lat="42.218221" lon="22.459660">
    <tag k="description" v="Border crossing with Bulgaria. Altitude: 1,187m."/>
    <tag k="label" v="Deve Bair"/>
    <tag k="website" v="#"/>
    <tag k="category" v="other"/>
  </node>
  <node id="-255" lat="41.134242" lon="22.549074">
    <tag k="description" v="Border crosing with Greece. Altitude: 60m."/>
    <tag k="label" v="Bogorodica"/>
    <tag k="website" v="#"/>
    <tag k="category" v="other"/>
  </node>
  <node id="-256" lat="41.170942" lon="22.748410">
    <tag k="description" v="Border crossing with Greece. Altitude: 175m."/>
    <tag k="label" v="Dojran"/>
    <tag k="website" v="#"/>
    <tag k="category" v="other"/>
  </node>
  <node id="-257" lat="41.941489" lon="21.621609">
    <tag k="description" v="Paytoll "/>
    <tag k="label" v="Petrovec"/>
    <tag k="website" v="#"/>
    <tag k="category" v="other"/>
  </node>
  <node id="-258" lat="41.990510" lon="21.445602">
    <tag k="description" v="Bus Station http://www.sas.com.mk"/>
    <tag k="label" v="Skopje"/>
    <tag k="website" v="#"/>
    <tag k="category" v="other"/>
  </node>
  <node id="-259" lat="42.007995" lon="20.985732">
    <tag k="description" v="Bus Station "/>
    <tag k="label" v="Tetovo"/>
    <tag k="website" v="#"/>
    <tag k="category" v="other"/>
  </node>
  <node id="-260" lat="40.911567" lon="20.737231">
    <tag k="description" v="Border crossing point "/>
    <tag k="label" v="Sveti Naum"/>
    <tag k="website" v="#"/>
    <tag k="category" v="other"/>
  </node>
  <node id="-261" lat="40.919707" lon="20.899537">
    <tag k="description" v="Border crossing point "/>
    <tag k="label" v="Stenje"/>
    <tag k="website" v="#"/>
    <tag k="category" v="other"/>
  </node>
  <node id="-262" lat="40.920225" lon="21.416430">
    <tag k="description" v=" "/>
    <tag k="label" v="Medzitlija"/>
    <tag k="website" v="#"/>
    <tag k="category" v="other"/>
  </node>
  <node id="-263" lat="41.145828" lon="22.511287">
    <tag k="description" v="Railway station "/>
    <tag k="label" v="Gevgelija"/>
    <tag k="website" v="#"/>
    <tag k="category" v="other"/>
  </node>
  <node id="-264" lat="41.396280" lon="22.963904">
    <tag k="description" v="Border crossing point "/>
    <tag k="label" v="Novo Selo"/>
    <tag k="website" v="#"/>
    <tag k="category" v="other"/>
  </node>
  <node id="-265" lat="42.311418" lon="21.878795">
    <tag k="description" v="Border crossing point with Serbia. Altitude: 418m"/>
    <tag k="label" v="Pelince"/>
    <tag k="website" v="#"/>
    <tag k="category" v="other"/>
  </node>
  <node id="-266" lat="42.103699" lon="21.700219">
    <tag k="description" v="Paytoll Altitude: 443 m"/>
    <tag k="label" v="Romanovce"/>
    <tag k="website" v="#"/>
    <tag k="category" v="other"/>
  </node>
  <node id="-267" lat="41.983284" lon="21.641398">
    <tag k="description" v="Paytoll Altitude: 280m"/>
    <tag k="label" v="Miladinovci"/>
    <tag k="website" v="#"/>
    <tag k="category" v="other"/>
  </node>
  <node id="-268" lat="41.775768" lon="21.744164">
    <tag k="description" v="Paytoll / Tollbooth Altitude: 233m"/>
    <tag k="label" v="Sopot"/>
    <tag k="website" v="#"/>
    <tag k="category" v="other"/>
  </node>
  <node id="-269" lat="41.778397" lon="21.766866">
    <tag k="description" v="Tollbooth / Paytoll Altitude: 291m"/>
    <tag k="label" v="Otovica"/>
    <tag k="website" v="#"/>
    <tag k="category" v="other"/>
  </node>
  <node id="-270" lat="41.573735" lon="21.935534">
    <tag k="description" v="Paytoll Altitude: 188m"/>
    <tag k="label" v="Gradsko"/>
    <tag k="website" v="#"/>
    <tag k="category" v="other"/>
  </node>
  <node id="-271" lat="41.558195" lon="20.496283">
    <tag k="description" v="Border crossing point with Albania. Altitude: 598m"/>
    <tag k="label" v="Blato"/>
    <tag k="website" v="#"/>
    <tag k="category" v="other"/>
  </node>
  <node id="-272" lat="41.988468" lon="21.292427">
    <tag k="description" v="Paytoll Altitude: 311m"/>
    <tag k="label" v="Glumovo"/>
    <tag k="website" v="#"/>
    <tag k="category" v="other"/>
  </node>
  <node id="-273" lat="41.989912" lon="21.077034">
    <tag k="description" v="Paytoll Altitude: 417m"/>
    <tag k="label" v="Zelino"/>
    <tag k="website" v="#"/>
    <tag k="category" v="other"/>
  </node>
  <node id="-274" lat="41.976370" lon="20.956807">
    <tag k="description" v="Paytoll Altitude: 444m"/>
    <tag k="label" v="Tetovo"/>
    <tag k="website" v="#"/>
    <tag k="category" v="other"/>
  </node>
  <node id="-275" lat="41.820007" lon="20.917540">
    <tag k="description" v="Paytoll Altitude: 518m"/>
    <tag k="label" v="Gostivar"/>
    <tag k="website" v="#"/>
    <tag k="category" v="other"/>
  </node>
  <node id="-276" lat="41.723956" lon="21.768572">
    <tag k="description" v="Train station Altitude: 171m"/>
    <tag k="label" v="Veles"/>
    <tag k="website" v="#"/>
    <tag k="category" v="other"/>
  </node>
  <node id="-277" lat="41.715532" lon="21.786371">
    <tag k="description" v="Bus station  Altitude: 160m"/>
    <tag k="label" v="Veles"/>
    <tag k="website" v="#"/>
    <tag k="category" v="other"/>
  </node>
  <node id="-278" lat="41.439356" lon="22.010711">
    <tag k="description" v="Bus station "/>
    <tag k="label" v="Kavadarci"/>
    <tag k="website" v="#"/>
    <tag k="category" v="other"/>
  </node>
  <node id="-279" lat="41.497087" lon="22.098999">
    <tag k="description" v="Bus station "/>
    <tag k="label" v="Negotino"/>
    <tag k="website" v="#"/>
    <tag k="category" v="other"/>
  </node>
  <node id="-280" lat="41.912609" lon="22.421486">
    <tag k="description" v="Bus station "/>
    <tag k="label" v="Kocani"/>
    <tag k="website" v="#"/>
    <tag k="category" v="other"/>
  </node>
  <node id="-281" lat="41.912178" lon="22.420456">
    <tag k="description" v="Train station "/>
    <tag k="label" v="Kocani"/>
    <tag k="website" v="#"/>
    <tag k="category" v="other"/>
  </node>
  <node id="-282" lat="41.020044" lon="21.341811">
    <tag k="description" v="Bus station "/>
    <tag k="label" v="Bitola"/>
    <tag k="website" v="#"/>
    <tag k="category" v="other"/>
  </node>
  <node id="-283" lat="41.184985" lon="20.675108">
    <tag k="description" v="Bus station "/>
    <tag k="label" v="Struga"/>
    <tag k="website" v="#"/>
    <tag k="category" v="other"/>
  </node>
  <node id="-284" lat="41.336607" lon="21.541250">
    <tag k="description" v="Bus station "/>
    <tag k="label" v="Prilep"/>
    <tag k="website" v="#"/>
    <tag k="category" v="other"/>
  </node>
  <node id="-285" lat="41.124754" lon="20.812654">
    <tag k="description" v="Bus station "/>
    <tag k="label" v="Ohrid"/>
    <tag k="website" v="#"/>
    <tag k="category" v="other"/>
  </node>
  <node id="-286" lat="41.512675" lon="20.950713">
    <tag k="description" v="Bus station "/>
    <tag k="label" v="Kicevo"/>
    <tag k="website" v="#"/>
    <tag k="category" v="other"/>
  </node>
  <node id="-287" lat="41.512948" lon="20.950096">
    <tag k="description" v="Train station "/>
    <tag k="label" v="Kicevo"/>
    <tag k="website" v="#"/>
    <tag k="category" v="other"/>
  </node>
  <node id="-288" lat="41.409454" lon="22.244493">
    <tag k="description" v="Train station "/>
    <tag k="label" v="Demir Kapija"/>
    <tag k="website" v="#"/>
    <tag k="category" v="other"/>
  </node>
  <node id="-289" lat="41.409555" lon="22.244123">
    <tag k="description" v="Bus station "/>
    <tag k="label" v="Demir Kapija"/>
    <tag k="website" v="#"/>
    <tag k="category" v="other"/>
  </node>
  <node id="-290" lat="41.423711" lon="22.653465">
    <tag k="description" v="Bus station "/>
    <tag k="label" v="Strumica"/>
    <tag k="website" v="#"/>
    <tag k="category" v="other"/>
  </node>
  <node id="-291" lat="41.630071" lon="22.450991">
    <tag k="description" v="Bus station "/>
    <tag k="label" v="Radovis"/>
    <tag k="website" v="#"/>
    <tag k="category" v="other"/>
  </node>
  <node id="-292" lat="41.741218" lon="22.189207">
    <tag k="description" v="Bus station "/>
    <tag k="label" v="Stip"/>
    <tag k="website" v="#"/>
    <tag k="category" v="other"/>
  </node>
  <node id="-293" lat="41.755610" lon="22.173178">
    <tag k="description" v="Train station "/>
    <tag k="label" v="Stip"/>
    <tag k="website" v="#"/>
    <tag k="category" v="other"/>
  </node>
  <node id="-294" lat="41.497714" lon="22.104213">
    <tag k="description" v="Train station "/>
    <tag k="label" v="Negotino"/>
    <tag k="website" v="#"/>
    <tag k="category" v="other"/>
  </node>
  <node id="-295" lat="42.140528" lon="21.719091">
    <tag k="description" v="Bus station "/>
    <tag k="label" v="Kumanovo"/>
    <tag k="website" v="#"/>
    <tag k="category" v="other"/>
  </node>
  <node id="-296" lat="42.130340" lon="21.685461">
    <tag k="description" v="Train station "/>
    <tag k="label" v="Kumanovo"/>
    <tag k="website" v="#"/>
    <tag k="category" v="other"/>
  </node>
  <node id="-297" lat="41.019704" lon="21.342541">
    <tag k="description" v="Train station "/>
    <tag k="label" v="Bitola"/>
    <tag k="website" v="#"/>
    <tag k="category" v="other"/>
  </node>
  <node id="-298" lat="41.799919" lon="20.916767">
    <tag k="description" v="Train station "/>
    <tag k="label" v="Gostivar"/>
    <tag k="website" v="#"/>
    <tag k="category" v="other"/>
  </node>
  <node id="-299" lat="41.796024" lon="20.916134">
    <tag k="description" v="Bus station "/>
    <tag k="label" v="Gostivar"/>
    <tag k="website" v="#"/>
    <tag k="category" v="other"/>
  </node>
  <node id="-300" lat="41.991578" lon="21.446364">
    <tag k="description" v="Train station "/>
    <tag k="label" v="Skopje"/>
    <tag k="website" v="#"/>
    <tag k="category" v="other"/>
  </node>
  <node id="-301" lat="42.007261" lon="20.986655">
    <tag k="description" v="Train station "/>
    <tag k="label" v="Tetovo"/>
    <tag k="website" v="#"/>
    <tag k="category" v="other"/>
  </node>
  <node id="-302" lat="41.705456" lon="22.854931">
    <tag k="description" v="Bus station "/>
    <tag k="label" v="Berovo"/>
    <tag k="website" v="#"/>
    <tag k="category" v="other"/>
  </node>
  <node id="-303" lat="41.344316" lon="21.538074">
    <tag k="description" v="Train station "/>
    <tag k="label" v="Prilep"/>
    <tag k="website" v="#"/>
    <tag k="category" v="other"/>
  </node>
  <node id="-304" lat="41.141061" lon="22.502360">
    <tag k="description" v="Bus station "/>
    <tag k="label" v="Gevgelija"/>
    <tag k="website" v="#"/>
    <tag k="category" v="other"/>
  </node>
  <node id="-305" lat="42.0033628033851" lon="21.4351844787598">
    <tag k="description" v="Albania"/>
    <tag k="label" v="Embassy"/>
    <tag k="website" v="#"/>
    <tag k="category" v="diplomatic"/>
  </node>
  <node id="-306" lat="41.993998227951" lon="21.407665014267">
    <tag k="description" v="Austria"/>
    <tag k="label" v="Embassy"/>
    <tag k="website" v="#"/>
    <tag k="category" v="diplomatic"/>
  </node>
  <node id="-307" lat="41.9952022650373" lon="21.4012545347214">
    <tag k="description" v="Bosnia and Herzegovina"/>
    <tag k="label" v="Embassy"/>
    <tag k="website" v="#"/>
    <tag k="category" v="diplomatic"/>
  </node>
  <node id="-308" lat="41.994943119906" lon="21.4198583364487">
    <tag k="description" v="Bulgaria"/>
    <tag k="label" v="Embassy"/>
    <tag k="website" v="#"/>
    <tag k="category" v="diplomatic"/>
  </node>
  <node id="-309" lat="41.984791774357" lon="21.4318639039993">
    <tag k="description" v="China, People's Republic of"/>
    <tag k="label" v="Embassy"/>
    <tag k="website" v="#"/>
    <tag k="category" v="diplomatic"/>
  </node>
  <node id="-310" lat="41.9944088789207" lon="21.4193969964981">
    <tag k="description" v="Croatia"/>
    <tag k="label" v="Embassy"/>
    <tag k="website" v="#"/>
    <tag k="category" v="diplomatic"/>
  </node>
  <node id="-311" lat="41.9794403350323" lon="21.4259523153305">
    <tag k="description" v="France"/>
    <tag k="label" v="Embassy"/>
    <tag k="website" v="#"/>
    <tag k="category" v="diplomatic"/>
  </node>
  <node id="-312" lat="41.9935796004488" lon="21.396136879921">
    <tag k="description" v="Germany"/>
    <tag k="label" v="Embassy"/>
    <tag k="website" v="#"/>
    <tag k="category" v="diplomatic"/>
  </node>
  <node id="-313" lat="41.9977258847583" lon="21.4234471321106">
    <tag k="description" v="Greece"/>
    <tag k="label" v="Embassy"/>
    <tag k="website" v="#"/>
    <tag k="category" v="diplomatic"/>
  </node>
  <node id="-314" lat="42.0058821133197" lon="21.4113986492157">
    <tag k="description" v="Hungary"/>
    <tag k="label" v="Embassy"/>
    <tag k="website" v="#"/>
    <tag k="category" v="diplomatic"/>
  </node>
  <node id="-315" lat="41.9959318525859" lon="21.4161193370819">
    <tag k="description" v="Iran"/>
    <tag k="label" v="Embassy"/>
    <tag k="website" v="#"/>
    <tag k="category" v="diplomatic"/>
  </node>
  <node id="-316" lat="41.9954893168741" lon="21.4285379648209">
    <tag k="description" v="Italy"/>
    <tag k="label" v="Embassy"/>
    <tag k="website" v="#"/>
    <tag k="category" v="diplomatic"/>
  </node>
  <node id="-317" lat="41.9989856637905" lon="21.4528656005859">
    <tag k="description" v="Malta, Sovereign Military Order of"/>
    <tag k="label" v="Embassy"/>
    <tag k="website" v="#"/>
    <tag k="category" v="diplomatic"/>
  </node>
  <node id="-318" lat="41.9958441430497" lon="21.4174389839172">
    <tag k="description" v="Montenegro"/>
    <tag k="label" v="Embassy"/>
    <tag k="website" v="#"/>
    <tag k="category" v="diplomatic"/>
  </node>
  <node id="-319" lat="41.9959477997614" lon="21.4224976301193">
    <tag k="description" v="Netherland"/>
    <tag k="label" v="Embassy"/>
    <tag k="website" v="#"/>
    <tag k="category" v="diplomatic"/>
  </node>
  <node id="-320" lat="41.9965099351418" lon="21.4289027452469">
    <tag k="description" v="Norway"/>
    <tag k="label" v="Embassy"/>
    <tag k="website" v="#"/>
    <tag k="category" v="diplomatic"/>
  </node>
  <node id="-321" lat="41.9992846583166" lon="21.4227604866028">
    <tag k="description" v="Poland"/>
    <tag k="label" v="Embassy"/>
    <tag k="website" v="#"/>
    <tag k="category" v="diplomatic"/>
  </node>
  <node id="-322" lat="41.9970202381379" lon="21.4186406135559">
    <tag k="description" v="Romania"/>
    <tag k="label" v="Embassy"/>
    <tag k="website" v="#"/>
    <tag k="category" v="diplomatic"/>
  </node>
  <node id="-323" lat="41.9997032482929" lon="21.4243483543396">
    <tag k="description" v="Russian Federation"/>
    <tag k="label" v="Embassy"/>
    <tag k="website" v="#"/>
    <tag k="category" v="diplomatic"/>
  </node>
  <node id="-324" lat="41.9886196517254" lon="21.4142632484436">
    <tag k="description" v="Serbia, Republic of"/>
    <tag k="label" v="Embassy"/>
    <tag k="website" v="#"/>
    <tag k="category" v="diplomatic"/>
  </node>
  <node id="-325" lat="41.9894170972074" lon="21.4188551902771">
    <tag k="description" v="Slovenia"/>
    <tag k="label" v="Embassy"/>
    <tag k="website" v="#"/>
    <tag k="category" v="diplomatic"/>
  </node>
  <node id="-326" lat="41.9965856835014" lon="21.4289349317551">
    <tag k="description" v="Sweden"/>
    <tag k="label" v="Embassy"/>
    <tag k="website" v="#"/>
    <tag k="category" v="diplomatic"/>
  </node>
  <node id="-327" lat="41.9960434827299" lon="21.428387761116">
    <tag k="description" v="Switzerland"/>
    <tag k="label" v="Embassy"/>
    <tag k="website" v="#"/>
    <tag k="category" v="diplomatic"/>
  </node>
  <node id="-328" lat="42.0034744204941" lon="21.4344388246536">
    <tag k="description" v="Turkey"/>
    <tag k="label" v="Embassy"/>
    <tag k="website" v="#"/>
    <tag k="category" v="diplomatic"/>
  </node>
  <node id="-329" lat="41.988129217793" lon="21.4141023159027">
    <tag k="description" v="Ukraine"/>
    <tag k="label" v="Embassy"/>
    <tag k="website" v="#"/>
    <tag k="category" v="diplomatic"/>
  </node>
  <node id="-330" lat="41.9795998479236" lon="21.4254802465439">
    <tag k="description" v="United Kingdom of Great Britain and Northern Ireland"/>
    <tag k="label" v="Embassy"/>
    <tag k="website" v="#"/>
    <tag k="category" v="diplomatic"/>
  </node>
  <node id="-331" lat="42.0104819883203" lon="21.4267301559448">
    <tag k="description" v="United States of America"/>
    <tag k="label" v="Embassy"/>
    <tag k="website" v="#"/>
    <tag k="category" v="diplomatic"/>
  </node>
</osm>
